{"total": 12047, "per_page": 200, "current_page": 10, "last_page": 61, "from": 1848, "to": 2047, "data": [{"id": 2677220, "name": "Zenga (GB)", "dateOfBirth": "2019-02-19", "deathDate": null, "deathNote": "0", "age": 3, "moniker": "BAY FILLY b.2019", "dam": 2405871, "sire": 1928239, "sex": "FILLY", "trainerName": "Roger Varian", "trainerId": 726948, "ownerName": "Toudo Llc", "ownerId": 1158502, "ratingAWT": null, "ratingChase": null, "ratingFlat": 87, "ratingHurdle": null, "nameWithNoCountry": "Zenga", "performanceHistory": null, "damsire": 643314}, {"id": 2624223, "name": "Zenzero (IRE)", "dateOfBirth": "2018-02-10", "deathDate": null, "deathNote": "0", "age": 4, "moniker": "CHESNUT GELDING b.2018", "dam": 2360334, "sire": 2288444, "sex": "GELDING", "trainerName": null, "trainerId": null, "ownerName": "Mr N. Tritton", "ownerId": 511031, "ratingAWT": null, "ratingChase": null, "ratingFlat": 49, "ratingHurdle": null, "nameWithNoCountry": "Zenzero", "performanceHistory": null, "damsire": 1690141}, {"id": 2745596, "name": "Zephina (GB)", "dateOfBirth": "2020-03-08", "deathDate": null, "deathNote": "0", "age": 2, "moniker": "BAY FILLY b.2020", "dam": 2111830, "sire": 2352422, "sex": "FILLY", "trainerName": "David Evans", "trainerId": 500620, "ownerName": "Mr R. Kent", "ownerId": 700443, "ratingAWT": null, "ratingChase": null, "ratingFlat": 76, "ratingHurdle": null, "nameWithNoCountry": "Zephina", "performanceHistory": null, "damsire": 624615}, {"id": 2675830, "name": "Zephlyn (IRE)", "dateOfBirth": "2019-02-05", "deathDate": null, "deathNote": "0", "age": 3, "moniker": "BAY GELDING b.2019", "dam": 2362479, "sire": 1490096, "sex": "GELDING", "trainerName": "Ewan Whillans", "trainerId": 798621, "ownerName": "Mrs Elizabeth Ferguson", "ownerId": 813047, "ratingAWT": null, "ratingChase": null, "ratingFlat": 58, "ratingHurdle": null, "nameWithNoCountry": "Zephlyn", "performanceHistory": null, "damsire": 1857570}, {"id": 2767585, "name": "Zerbinetta (IRE)", "dateOfBirth": "2020-04-20", "deathDate": null, "deathNote": "0", "age": 2, "moniker": "BAY FILLY b.2020", "dam": 2285025, "sire": 1501530, "sex": "FILLY", "trainerName": "Ann Duffield", "trainerId": 539452, "ownerName": "Ms J. Bianco", "ownerId": 820099, "ratingAWT": null, "ratingChase": null, "ratingFlat": 44, "ratingHurdle": null, "nameWithNoCountry": "Zerbinetta", "performanceHistory": null, "damsire": 1490096}, {"id": 2731592, "name": "Zero Carbon (FR)", "dateOfBirth": "2019-03-19", "deathDate": null, "deathNote": "0", "age": 3, "moniker": "BAY COLT b.2019", "dam": 2284860, "sire": 1406583, "sex": "COLT", "trainerName": "Richard Hughes", "trainerId": 544055, "ownerName": "Mr Martin Clarke", "ownerId": 713832, "ratingAWT": null, "ratingChase": null, "ratingFlat": 82, "ratingHurdle": null, "nameWithNoCountry": "Zero Carbon", "performanceHistory": null, "damsire": 1550718}, {"id": 2630945, "name": "Zero Hour (GB)", "dateOfBirth": "2018-04-06", "deathDate": null, "deathNote": "0", "age": 4, "moniker": "CHESNUT FILLY b.2018", "dam": 2226372, "sire": 1456821, "sex": "FILLY", "trainerName": null, "trainerId": null, "ownerName": null, "ownerId": null, "ratingAWT": null, "ratingChase": null, "ratingFlat": 45, "ratingHurdle": null, "nameWithNoCountry": "Zero Hour", "performanceHistory": null, "damsire": 647298}, {"id": 2677954, "name": "Zestful (GB)", "dateOfBirth": "2019-02-24", "deathDate": null, "deathNote": "0", "age": 3, "moniker": "BAY FILLY b.2019", "dam": 1852802, "sire": 2223385, "sex": "FILLY", "trainerName": null, "trainerId": null, "ownerName": null, "ownerId": null, "ratingAWT": null, "ratingChase": null, "ratingFlat": 68, "ratingHurdle": null, "nameWithNoCountry": "Zestful", "performanceHistory": null, "damsire": 411169}, {"id": 2741805, "name": "Zestful Hope (FR)", "dateOfBirth": "2017-05-25", "deathDate": null, "deathNote": "0", "age": 5, "moniker": "BAY GELDING b.2017", "dam": 2138838, "sire": 2019058, "sex": "GELDING", "trainerName": "Charlie Longsdon", "trainerId": 736238, "ownerName": "Ms G. E. Morgan", "ownerId": 806531, "ratingAWT": null, "ratingChase": null, "ratingFlat": null, "ratingHurdle": 111, "nameWithNoCountry": "Zestful Hope", "performanceHistory": null, "damsire": 52511}, {"id": 2692460, "name": "Zhang Fei (FR)", "dateOfBirth": "2018-04-03", "deathDate": null, "deathNote": "0", "age": 4, "moniker": "BAY GELDING b.2018", "dam": 2302637, "sire": 2091293, "sex": "GELDING", "trainerName": "Paul & Oliver Cole", "trainerId": 1154327, "ownerName": "P. F. I. Cole Ltd", "ownerId": 509340, "ratingAWT": null, "ratingChase": null, "ratingFlat": 79, "ratingHurdle": null, "nameWithNoCountry": "Zhang Fei", "performanceHistory": null, "damsire": 1871956}, {"id": 2364816, "name": "Zhui Feng (IRE)", "dateOfBirth": "2013-02-05", "deathDate": null, "deathNote": "0", "age": 9, "moniker": "BAY GELDING b.2013", "dam": 1627346, "sire": 647298, "sex": "GELDING", "trainerName": "Tom Ward", "trainerId": 969736, "ownerName": "John Connolly & Odile Griffith", "ownerId": 1030459, "ratingAWT": null, "ratingChase": null, "ratingFlat": 78, "ratingHurdle": null, "nameWithNoCountry": "Zhui Feng", "performanceHistory": null, "damsire": 211269}, {"id": 2757980, "name": "Zicatela (IRE)", "dateOfBirth": "2020-04-11", "deathDate": null, "deathNote": "0", "age": 2, "moniker": "BAY COLT b.2020", "dam": 2353946, "sire": 2284878, "sex": "COLT", "trainerName": null, "trainerId": null, "ownerName": null, "ownerId": null, "ratingAWT": null, "ratingChase": null, "ratingFlat": 80, "ratingHurdle": null, "nameWithNoCountry": "Zicatela", "performanceHistory": null, "damsire": 1850951}, {"id": 2482990, "name": "Zig Zag Zyggy (IRE)", "dateOfBirth": "2015-04-04", "deathDate": null, "deathNote": "0", "age": 7, "moniker": "BAY GELDING b.2015", "dam": 2176714, "sire": 1577491, "sex": "GELDING", "trainerName": "Jim Goldie", "trainerId": 503639, "ownerName": "Thistle Bloodstock Limited", "ownerId": 942265, "ratingAWT": null, "ratingChase": null, "ratingFlat": 57, "ratingHurdle": null, "nameWithNoCountry": "Zig Zag Zyggy", "performanceHistory": null, "damsire": 1717026}, {"id": 2628901, "name": "Ziggy (GB)", "dateOfBirth": "2018-03-16", "deathDate": null, "deathNote": "0", "age": 4, "moniker": "BAY GELDING b.2018", "dam": 1898088, "sire": 1607760, "sex": "GELDING", "trainerName": "Harry Eustace", "trainerId": 827241, "ownerName": "Mr R. D. E. Marriott", "ownerId": 512895, "ratingAWT": null, "ratingChase": null, "ratingFlat": 92, "ratingHurdle": null, "nameWithNoCountry": "Ziggy", "performanceHistory": null, "damsire": 643314}, {"id": 2419958, "name": "Zihaam (GB)", "dateOfBirth": "2014-05-11", "deathDate": null, "deathNote": "0", "age": 8, "moniker": "CHESNUT GELDING b.2014", "dam": 1932594, "sire": 1690141, "sex": "GELDING", "trainerName": "Roger Fell", "trainerId": 556687, "ownerName": "Nick Bradley Racing 29 & Partner", "ownerId": 1112696, "ratingAWT": null, "ratingChase": null, "ratingFlat": 53, "ratingHurdle": null, "nameWithNoCountry": "Zihaam", "performanceHistory": null, "damsire": 350948}, {"id": 2422586, "name": "Zihuatanejo (IRE)", "dateOfBirth": "2014-04-11", "deathDate": null, "deathNote": "0", "age": 8, "moniker": "BAY GELDING b.2014", "dam": 1563124, "sire": 357988, "sex": "GELDING", "trainerName": "Sandy Forster", "trainerId": 541873, "ownerName": "Miss Sandra Forster", "ownerId": 541873, "ratingAWT": null, "ratingChase": null, "ratingFlat": null, "ratingHurdle": 79, "nameWithNoCountry": "Zihuatanejo", "performanceHistory": null, "damsire": 42097}, {"id": 2631910, "name": "Zikany (GB)", "dateOfBirth": "2018-04-11", "deathDate": null, "deathNote": "0", "age": 4, "moniker": "BAY GELDING b.2018", "dam": 1861278, "sire": 2025909, "sex": "GELDING", "trainerName": "Amanda Perrett", "trainerId": 513481, "ownerName": "Mrs Avril Lewis", "ownerId": 836805, "ratingAWT": null, "ratingChase": null, "ratingFlat": 72, "ratingHurdle": null, "nameWithNoCountry": "Zikany", "performanceHistory": null, "damsire": 1383675}, {"id": 2436096, "name": "Zillion (IRE)", "dateOfBirth": "2014-04-01", "deathDate": null, "deathNote": "0", "age": 8, "moniker": "BAY GELDING b.2014", "dam": 1702781, "sire": 2011499, "sex": "GELDING", "trainerName": "Susan Gardner", "trainerId": 756701, "ownerName": "Miss Jane Edgar & Mr D.  V.  Gardner", "ownerId": 1120292, "ratingAWT": null, "ratingChase": null, "ratingFlat": 64, "ratingHurdle": 80, "nameWithNoCountry": "Zillion", "performanceHistory": null, "damsire": 256050}, {"id": 2595655, "name": "Zim Baby (GB)", "dateOfBirth": "2017-03-26", "deathDate": null, "deathNote": "0", "age": 5, "moniker": "BAY FILLY b.2017", "dam": 1998062, "sire": 2022730, "sex": "FILLY", "trainerName": "Michael Appleby", "trainerId": 549484, "ownerName": "Mr Edward Foster", "ownerId": 1128919, "ratingAWT": null, "ratingChase": null, "ratingFlat": 81, "ratingHurdle": null, "nameWithNoCountry": "Zim Baby", "performanceHistory": null, "damsire": 1542331}, {"id": 2681603, "name": "Zimmer (IRE)", "dateOfBirth": "2019-03-10", "deathDate": null, "deathNote": "0", "age": 3, "moniker": "BAY GELDING b.2019", "dam": 2110642, "sire": 2381695, "sex": "GELDING", "trainerName": "Seamus Mullins", "trainerId": 524847, "ownerName": "Mr Simon Prout", "ownerId": 501837, "ratingAWT": null, "ratingChase": null, "ratingFlat": 70, "ratingHurdle": null, "nameWithNoCountry": "Zimmer", "performanceHistory": null, "damsire": 604117}, {"id": 2677129, "name": "Zimmerman (GB)", "dateOfBirth": "2019-02-15", "deathDate": null, "deathNote": "0", "age": 3, "moniker": "CHESNUT GELDING b.2019", "dam": 1595432, "sire": 1929598, "sex": "GELDING", "trainerName": "Tim Easterby", "trainerId": 529976, "ownerName": "Mr Mark Kershaw", "ownerId": 533606, "ratingAWT": null, "ratingChase": null, "ratingFlat": 76, "ratingHurdle": null, "nameWithNoCountry": "Zimmerman", "performanceHistory": null, "damsire": 101731}, {"id": 2413040, "name": "Zinat (IRE)", "dateOfBirth": "2014-03-10", "deathDate": null, "deathNote": "0", "age": 8, "moniker": "GREY FILLY b.2014", "dam": 1800375, "sire": 1717026, "sex": "FILLY", "trainerName": "Phil York", "trainerId": 558003, "ownerName": "Mrs K. H. York", "ownerId": 784663, "ratingAWT": null, "ratingChase": null, "ratingFlat": null, "ratingHurdle": 86, "nameWithNoCountry": "Zinat", "performanceHistory": null, "damsire": 1461144}, {"id": 2524940, "name": "Zip (GB)", "dateOfBirth": "2016-04-05", "deathDate": null, "deathNote": "0", "age": 6, "moniker": "ROAN GELDING b.2016", "dam": 2237647, "sire": 1369970, "sex": "GELDING", "trainerName": "Richard Fahey", "trainerId": 563793, "ownerName": "The Knavesmire Partnership", "ownerId": 1127066, "ratingAWT": null, "ratingChase": null, "ratingFlat": 81, "ratingHurdle": null, "nameWithNoCountry": "Zip", "performanceHistory": null, "damsire": 643314}, {"id": 2540897, "name": "Zip Pearl (IRE)", "dateOfBirth": "2016-04-29", "deathDate": null, "deathNote": "0", "age": 6, "moniker": "BAY FILLY b.2016", "dam": 1701708, "sire": 1371866, "sex": "FILLY", "trainerName": null, "trainerId": null, "ownerName": null, "ownerId": null, "ratingAWT": null, "ratingChase": null, "ratingFlat": null, "ratingHurdle": 85, "nameWithNoCountry": "Zip Pearl", "performanceHistory": null, "damsire": 82726}, {"id": 2368370, "name": "Zlatan (IRE)", "dateOfBirth": "2013-04-18", "deathDate": null, "deathNote": "0", "age": 9, "moniker": "BAY GELDING b.2013", "dam": 1936069, "sire": 1827153, "sex": "GELDING", "trainerName": "Ed de Giles", "trainerId": 548077, "ownerName": "Ed de Giles", "ownerId": 548077, "ratingAWT": null, "ratingChase": null, "ratingFlat": 61, "ratingHurdle": null, "nameWithNoCountry": "Zlatan", "performanceHistory": null, "damsire": 78213}, {"id": 2486404, "name": "Zoffalee (FR)", "dateOfBirth": "2015-03-01", "deathDate": null, "deathNote": "0", "age": 7, "moniker": "CHESNUT GELDING b.2015", "dam": 1553685, "sire": 2025909, "sex": "GELDING", "trainerName": "Mike Sowersby", "trainerId": 505065, "ownerName": "Mr D.  R.  Passant", "ownerId": 937984, "ratingAWT": null, "ratingChase": 110, "ratingFlat": null, "ratingHurdle": null, "nameWithNoCountry": "Zoffalee", "performanceHistory": null, "damsire": 1385902}, {"id": 2519184, "name": "Zoffee (GB)", "dateOfBirth": "2016-03-07", "deathDate": null, "deathNote": "0", "age": 6, "moniker": "BAY GELDING b.2016", "dam": 2040713, "sire": 2025909, "sex": "GELDING", "trainerName": "Hugo Palmer", "trainerId": 906243, "ownerName": "Mr Alan Peterson", "ownerId": 804816, "ratingAWT": null, "ratingChase": null, "ratingFlat": 93, "ratingHurdle": null, "nameWithNoCountry": "Zoffee", "performanceHistory": null, "damsire": 624615}, {"id": 2675735, "name": "Zoom (GB)", "dateOfBirth": "2019-02-03", "deathDate": null, "deathNote": "0", "age": 3, "moniker": "BAY COLT b.2019", "dam": 2117354, "sire": 2314454, "sex": "COLT", "trainerName": null, "trainerId": null, "ownerName": null, "ownerId": null, "ratingAWT": null, "ratingChase": null, "ratingFlat": 84, "ratingHurdle": null, "nameWithNoCountry": "Zoom", "performanceHistory": null, "damsire": 1423852}, {"id": 2629629, "name": "Zoom Star (GB)", "dateOfBirth": "2018-04-02", "deathDate": null, "deathNote": "0", "age": 4, "moniker": "BAY FILLY b.2018", "dam": 2436557, "sire": 2028185, "sex": "FILLY", "trainerName": "Bryan Smart", "trainerId": 527365, "ownerName": "Woodcock Electrical Limited", "ownerId": 895140, "ratingAWT": null, "ratingChase": null, "ratingFlat": 54, "ratingHurdle": null, "nameWithNoCountry": "Zoom Star", "performanceHistory": null, "damsire": 1827153}, {"id": 2577651, "name": "Zoom Zoom Babe (GB)", "dateOfBirth": "2017-03-22", "deathDate": null, "deathNote": "0", "age": 5, "moniker": "BAY FILLY b.2017", "dam": 1776185, "sire": 1544778, "sex": "FILLY", "trainerName": "Tom Dascombe", "trainerId": 561702, "ownerName": "Mr David Foy", "ownerId": 1188701, "ratingAWT": null, "ratingChase": null, "ratingFlat": 64, "ratingHurdle": null, "nameWithNoCountry": "Zoom Zoom Babe", "performanceHistory": null, "damsire": 1339288}, {"id": 2582093, "name": "Zoran (GB)", "dateOfBirth": "2017-04-07", "deathDate": null, "deathNote": "0", "age": 5, "moniker": "BAY GELDING b.2017", "dam": 2151459, "sire": 647298, "sex": "GELDING", "trainerName": "Paul Nicholls", "trainerId": 550463, "ownerName": "Mr Tony Hill", "ownerId": 559003, "ratingAWT": null, "ratingChase": null, "ratingFlat": null, "ratingHurdle": 92, "nameWithNoCountry": "Zoran", "performanceHistory": null, "damsire": 1380192}, {"id": 2748906, "name": "Zouky (GB)", "dateOfBirth": "2020-04-08", "deathDate": null, "deathNote": "0", "age": 2, "moniker": "BAY FILLY b.2020", "dam": 1713568, "sire": 2352422, "sex": "FILLY", "trainerName": "Philip McBride", "trainerId": 514163, "ownerName": "Mrs R. J. Mitchell", "ownerId": 45034, "ratingAWT": null, "ratingChase": null, "ratingFlat": 88, "ratingHurdle": null, "nameWithNoCountry": "Zouky", "performanceHistory": null, "damsire": 1375480}, {"id": 2516787, "name": "Zuba (GB)", "dateOfBirth": "2016-01-30", "deathDate": null, "deathNote": "0", "age": 6, "moniker": "BAY GELDING b.2016", "dam": 2163780, "sire": 1550718, "sex": "GELDING", "trainerName": "Nick Gifford", "trainerId": 700329, "ownerName": "John Connolly & Odile Griffith", "ownerId": 1030459, "ratingAWT": null, "ratingChase": null, "ratingFlat": 67, "ratingHurdle": 98, "nameWithNoCountry": "Zuba", "performanceHistory": null, "damsire": 1690955}, {"id": 2632119, "name": "Zucayan (FR)", "dateOfBirth": "2017-03-30", "deathDate": null, "deathNote": "0", "age": 5, "moniker": "BAY GELDING b.2017", "dam": 1369111, "sire": 2131925, "sex": "GELDING", "trainerName": "Fergal O'Brien", "trainerId": 559782, "ownerName": "Mr Ian Slatter", "ownerId": 1051652, "ratingAWT": null, "ratingChase": null, "ratingFlat": null, "ratingHurdle": 102, "nameWithNoCountry": "Zucayan", "performanceHistory": null, "damsire": 233781}, {"id": 2539126, "name": "Zuckerberg (GER)", "dateOfBirth": "2016-03-10", "deathDate": null, "deathNote": "0", "age": 6, "moniker": "BAY GELDING b.2016", "dam": 2234383, "sire": 1846637, "sex": "GELDING", "trainerName": "Jennie Candlish", "trainerId": 770869, "ownerName": " John Marriott", "ownerId": 747697, "ratingAWT": null, "ratingChase": 88, "ratingFlat": 58, "ratingHurdle": 88, "nameWithNoCountry": "Zuckerberg", "performanceHistory": null, "damsire": 1570065}, {"id": 2434910, "name": "Zulu Dawn (IRE)", "dateOfBirth": "2014-04-28", "deathDate": null, "deathNote": "0", "age": 8, "moniker": "BAY GELDING b.2014", "dam": 1378257, "sire": 1871743, "sex": "GELDING", "trainerName": null, "trainerId": null, "ownerName": "The Grand Cru Partnership", "ownerId": 1126039, "ratingAWT": null, "ratingChase": null, "ratingFlat": null, "ratingHurdle": 98, "nameWithNoCountry": "Zulu Dawn", "performanceHistory": null, "damsire": 272411}, {"id": 2583580, "name": "Zulu Girl (GB)", "dateOfBirth": "2017-04-29", "deathDate": null, "deathNote": "0", "age": 5, "moniker": "BAY FILLY b.2017", "dam": 1595931, "sire": 2102928, "sex": "FILLY", "trainerName": null, "trainerId": null, "ownerName": "Ms Trish Hall", "ownerId": 1065491, "ratingAWT": null, "ratingChase": null, "ratingFlat": 74, "ratingHurdle": null, "nameWithNoCountry": "Zulu Girl", "performanceHistory": null, "damsire": 612811}, {"id": 2679255, "name": "Zulu Tracker (IRE)", "dateOfBirth": "2019-02-06", "deathDate": null, "deathNote": "0", "age": 3, "moniker": "CHESNUT GELDING b.2019", "dam": 2376043, "sire": 1544778, "sex": "GELDING", "trainerName": null, "trainerId": null, "ownerName": "Promenade Bloodstock Limited", "ownerId": 1067245, "ratingAWT": null, "ratingChase": null, "ratingFlat": 85, "ratingHurdle": null, "nameWithNoCountry": "Zulu Tracker", "performanceHistory": null, "damsire": 1399391}, {"id": 2632836, "name": "Zumaaty (IRE)", "dateOfBirth": "2018-04-03", "deathDate": null, "deathNote": "0", "age": 4, "moniker": "BAY GELDING b.2018", "dam": 1870076, "sire": 1780554, "sex": "GELDING", "trainerName": "Iain Jardine", "trainerId": 544986, "ownerName": "Mr R. A. Gorrie", "ownerId": 1061180, "ratingAWT": null, "ratingChase": null, "ratingFlat": 52, "ratingHurdle": null, "nameWithNoCountry": "Zumaaty", "performanceHistory": null, "damsire": 224473}, {"id": 2608862, "name": "Zumbi (GER)", "dateOfBirth": "2017-02-07", "deathDate": null, "deathNote": "0", "age": 5, "moniker": "GREY GELDING b.2017", "dam": 2245803, "sire": 2025612, "sex": "GELDING", "trainerName": "James Moffatt", "trainerId": 542982, "ownerName": "Dave & Yvonne Simpson", "ownerId": 1128728, "ratingAWT": null, "ratingChase": null, "ratingFlat": null, "ratingHurdle": 115, "nameWithNoCountry": "Zumbi", "performanceHistory": null, "damsire": 1421550}, {"id": 2476066, "name": "Zumurud (IRE)", "dateOfBirth": "2015-01-17", "deathDate": null, "deathNote": "0", "age": 7, "moniker": "GREY GELDING b.2015", "dam": 1349887, "sire": 2011499, "sex": "GELDING", "trainerName": "Mark Walford", "trainerId": 765784, "ownerName": "Ms M.  Austerfield", "ownerId": 956081, "ratingAWT": null, "ratingChase": null, "ratingFlat": 67, "ratingHurdle": null, "nameWithNoCountry": "Zumurud", "performanceHistory": null, "damsire": 728282}, {"id": 2629276, "name": "Zuraig (GB)", "dateOfBirth": "2018-03-21", "deathDate": null, "deathNote": "0", "age": 4, "moniker": "GREY GELDING b.2018", "dam": 2195716, "sire": 1709610, "sex": "GELDING", "trainerName": "Bernard Llewellyn", "trainerId": 514599, "ownerName": "Mr B. J. Llewellyn", "ownerId": 514599, "ratingAWT": null, "ratingChase": null, "ratingFlat": 72, "ratingHurdle": null, "nameWithNoCountry": "Zuraig", "performanceHistory": null, "damsire": 1461144}, {"id": 2532316, "name": "Zurekin (IRE)", "dateOfBirth": "2016-04-16", "deathDate": null, "deathNote": "0", "age": 6, "moniker": "BAY GELDING b.2016", "dam": 2356321, "sire": 1410787, "sex": null, "trainerName": null, "trainerId": null, "ownerName": null, "ownerId": null, "ratingAWT": null, "ratingChase": null, "ratingFlat": null, "ratingHurdle": null, "nameWithNoCountry": "Zurekin", "performanceHistory": null, "damsire": 9340}, {"id": 2581468, "name": "Zwicky (GB)", "dateOfBirth": "2017-03-26", "deathDate": null, "deathNote": "0", "age": 5, "moniker": "BAY GELDING b.2017", "dam": 2167387, "sire": 1607760, "sex": null, "trainerName": null, "trainerId": null, "ownerName": "Philip and Nicola Tyler", "ownerId": 1177964, "ratingAWT": null, "ratingChase": null, "ratingFlat": null, "ratingHurdle": null, "nameWithNoCountry": "Zwicky", "performanceHistory": null, "damsire": 1737316}, {"id": 2684985, "name": "Zwift (GB)", "dateOfBirth": "2019-03-28", "deathDate": null, "deathNote": "0", "age": 3, "moniker": "BAY FILLY b.2019", "dam": 2244661, "sire": 1501530, "sex": "FILLY", "trainerName": null, "trainerId": null, "ownerName": null, "ownerId": null, "ratingAWT": null, "ratingChase": null, "ratingFlat": 55, "ratingHurdle": null, "nameWithNoCountry": "Zwift", "performanceHistory": null, "damsire": 1612622}, {"id": 2405863, "name": "Zyon (GB)", "dateOfBirth": "2014-03-07", "deathDate": null, "deathNote": "0", "age": 8, "moniker": "GREY GELDING b.2014", "dam": 1741280, "sire": 1410787, "sex": "GELDING", "trainerName": "Adam West", "trainerId": 896959, "ownerName": "Mrs Johnny de la Hey", "ownerId": 1013009, "ratingAWT": null, "ratingChase": null, "ratingFlat": null, "ratingHurdle": 119, "nameWithNoCountry": "Zyon", "performanceHistory": null, "damsire": 720575}, {"id": 2625172, "name": "Zyra's Lioness (GB)", "dateOfBirth": "2018-02-19", "deathDate": null, "deathNote": "0", "age": 4, "moniker": "BAY FILLY b.2018", "dam": 2305090, "sire": 1607760, "sex": "FILLY", "trainerName": "Sheena West", "trainerId": 532550, "ownerName": "Mr Ricki Vaughan", "ownerId": 992629, "ratingAWT": null, "ratingChase": null, "ratingFlat": 47, "ratingHurdle": null, "nameWithNoCountry": "Zyra's Lioness", "performanceHistory": null, "damsire": 304111}]}