{"total":657,"per_page":100,"current_page":7,"last_page":7,"from":601,"to":657,"data":[{"id":1121645,"name":"Olivia Tubb","county":"Berkshire","age":19,"daysSinceLastWin":null,"licenseType":"Apprentice","jockeyImage":null},{"id":1057042,"name":"Harriet Tucker","county":"Oxfordshire","age":26,"daysSinceLastWin":361,"licenseType":"Flat \/ Jump","jockeyImage":null},{"id":811703,"name":"Daniel Tudhope","county":"North Yorkshire","age":36,"daysSinceLastWin":0,"licenseType":"Flat","jockeyImage":"https:\/\/media.britishhorseracing.com\/images\/jockeys\/photos\/811703.jpg"},{"id":1135134,"name":"Jack Tudor","county":"Mid Glamorgan","age":20,"daysSinceLastWin":17,"licenseType":"Conditional","jockeyImage":null},{"id":1130384,"name":"Miss Anna Tuer","county":"North Yorkshire","age":20,"daysSinceLastWin":null,"licenseType":"Cat A Amateur (Flat)","jockeyImage":null},{"id":618260,"name":"Mr David Turner","county":"Wiltshire","age":44,"daysSinceLastWin":2023,"licenseType":"Cat B Amateur","jockeyImage":null},{"id":961085,"name":"Miss Lucy Turner","county":"Herefordshire","age":29,"daysSinceLastWin":123,"licenseType":"Cat B Amateur","jockeyImage":null},{"id":764505,"name":"Hayley Turner","county":"Suffolk","age":39,"daysSinceLastWin":3,"licenseType":"Flat","jockeyImage":"https:\/\/media.britishhorseracing.com\/images\/jockeys\/photos\/764505.jpg"},{"id":1114850,"name":"Mr James Turner","county":"Buckinghamshire","age":19,"daysSinceLastWin":296,"licenseType":"Cat B Amateur","jockeyImage":null},{"id":990402,"name":"Sam Twiston-Davies","county":"Gloucestershire","age":29,"daysSinceLastWin":5,"licenseType":"Jump","jockeyImage":"https:\/\/media.britishhorseracing.com\/images\/jockeys\/photos\/990402.jpg"},{"id":1108853,"name":"Angus Villiers","county":"Suffolk","age":20,"daysSinceLastWin":216,"licenseType":"Apprentice","jockeyImage":null},{"id":1154560,"name":"Alec Voikhansky","county":"","age":18,"daysSinceLastWin":354,"licenseType":"Apprentice","jockeyImage":null},{"id":562156,"name":"Dr Misha Voikhansky","county":"Staffordshire","age":56,"daysSinceLastWin":1508,"licenseType":"Cat A Amateur (Flat)","jockeyImage":null},{"id":1160864,"name":"Miss Abigail Voyce","county":"Pembrokeshire","age":21,"daysSinceLastWin":null,"licenseType":"Cat A Amateur (Dual)","jockeyImage":null},{"id":1123870,"name":"Patrick Wadge","county":"Tayside","age":20,"daysSinceLastWin":8,"licenseType":"Conditional","jockeyImage":null},{"id":853726,"name":"Mr James Waggott","county":"County Durham","age":31,"daysSinceLastWin":null,"licenseType":"Cat A Amateur (Dual)","jockeyImage":null},{"id":772272,"name":"Mr Sam Waley-Cohen","county":"Middlesex","age":40,"daysSinceLastWin":100,"licenseType":"Cat B Amateur","jockeyImage":null},{"id":564433,"name":"Mr Simon Walker","county":"Hampshire","age":49,"daysSinceLastWin":100,"licenseType":"Cat B Amateur","jockeyImage":null},{"id":1149820,"name":"Mr Gregor Walkingshaw","county":"Kinross-shire","age":18,"daysSinceLastWin":null,"licenseType":"Cat A Amateur (Jump)","jockeyImage":null},{"id":1059179,"name":"Eoin Walsh","county":"Suffolk","age":27,"daysSinceLastWin":338,"licenseType":"Flat","jockeyImage":null},{"id":938224,"name":"Chris Ward","county":"Warwickshire","age":32,"daysSinceLastWin":34,"licenseType":"Jump","jockeyImage":null},{"id":1085379,"name":"Jason Watson","county":"Sussex","age":22,"daysSinceLastWin":1,"licenseType":"Flat","jockeyImage":"https:\/\/media.britishhorseracing.com\/images\/jockeys\/photos\/1085379.jpg"},{"id":1103446,"name":"Shannon Watts","county":"Lanarkshire","age":24,"daysSinceLastWin":2,"licenseType":"Apprentice","jockeyImage":null},{"id":957370,"name":"Amie Waugh","county":"Northumberland","age":32,"daysSinceLastWin":54,"licenseType":"Flat","jockeyImage":null},{"id":1135527,"name":"Mr Aidan Weaver","county":"","age":23,"daysSinceLastWin":null,"licenseType":"Cat A Amateur (Dual)","jockeyImage":null},{"id":1135750,"name":"Miss Katie Webb","county":"Cambridgeshire","age":23,"daysSinceLastWin":630,"licenseType":"Cat A Amateur (Flat)","jockeyImage":null},{"id":1119748,"name":"Mr Vincent Webster","county":"Devon","age":29,"daysSinceLastWin":52,"licenseType":"Cat B Amateur","jockeyImage":null},{"id":946853,"name":"Adam Wedge","county":"Mid Glamorgan","age":32,"daysSinceLastWin":6,"licenseType":"Jump","jockeyImage":"https:\/\/media.britishhorseracing.com\/images\/jockeys\/photos\/946853.jpg"},{"id":1100980,"name":"Zak Wheatley","county":"North Yorkshire","age":23,"daysSinceLastWin":19,"licenseType":"Apprentice","jockeyImage":null},{"id":999910,"name":"Trevor Whelan","county":"Wiltshire","age":33,"daysSinceLastWin":3,"licenseType":"Flat","jockeyImage":null},{"id":1089105,"name":"Elisha Whittington","county":"Worcestershire","age":24,"daysSinceLastWin":305,"licenseType":"Apprentice","jockeyImage":null},{"id":1153938,"name":"Jack Wildman","county":"Wiltshire","age":20,"daysSinceLastWin":91,"licenseType":"Conditional","jockeyImage":null},{"id":1160748,"name":"Brandon Wilkie","county":"North Yorkshire","age":18,"daysSinceLastWin":70,"licenseType":"Apprentice","jockeyImage":null},{"id":621624,"name":"Miss Sarah Williams","county":"Suffolk","age":52,"daysSinceLastWin":null,"licenseType":"Cat A Amateur (Flat)","jockeyImage":null},{"id":1083320,"name":"Lorcan Williams","county":"Somerset","age":22,"daysSinceLastWin":67,"licenseType":"Jump","jockeyImage":null},{"id":1170902,"name":"Miss Emma Williams","county":"Gloucestershire","age":19,"daysSinceLastWin":null,"licenseType":"Cat A Amateur (Dual)","jockeyImage":null},{"id":1042395,"name":"Chester Williams","county":"Devon","age":24,"daysSinceLastWin":126,"licenseType":"Conditional","jockeyImage":null},{"id":1081330,"name":"Jordan Williams","county":"Mid Glamorgan","age":23,"daysSinceLastWin":7,"licenseType":"Apprentice","jockeyImage":null},{"id":1074356,"name":"Joe Williamson","county":"North Yorkshire","age":25,"daysSinceLastWin":76,"licenseType":"Apprentice \/ Conditional","jockeyImage":null},{"id":1102260,"name":"Thomas Willmott","county":"West Yorkshire","age":22,"daysSinceLastWin":49,"licenseType":"Conditional","jockeyImage":null},{"id":1138342,"name":"Mr Matthew Wilson","county":"Surrey","age":20,"daysSinceLastWin":null,"licenseType":"Cat A Amateur (Dual)","jockeyImage":null},{"id":1123954,"name":"Curtis Wilson-Ruddock","county":"North Yorkshire","age":20,"daysSinceLastWin":null,"licenseType":"Apprentice","jockeyImage":null},{"id":1056752,"name":"Miss Jodie Wingrove","county":"Shropshire","age":22,"daysSinceLastWin":null,"licenseType":"Cat A Amateur (Dual)","jockeyImage":null},{"id":1056754,"name":"Miss Megan Wingrove","county":"Shropshire","age":24,"daysSinceLastWin":6,"licenseType":"Cat A Amateur (Flat)","jockeyImage":null},{"id":1134938,"name":"Mark Winn","county":"Berkshire","age":19,"daysSinceLastWin":3,"licenseType":"Apprentice","jockeyImage":null},{"id":714735,"name":"Robert Winston","county":"Suffolk","age":42,"daysSinceLastWin":142,"licenseType":"Flat","jockeyImage":null},{"id":1067481,"name":"George Wood","county":"Suffolk","age":24,"daysSinceLastWin":6,"licenseType":"Flat","jockeyImage":null},{"id":1107626,"name":"Sebastian Woods","county":"Cheshire","age":23,"daysSinceLastWin":322,"licenseType":"Apprentice","jockeyImage":null},{"id":1024252,"name":"Kielan Woods","county":"Gloucestershire","age":29,"daysSinceLastWin":1,"licenseType":"Jump","jockeyImage":"https:\/\/media.britishhorseracing.com\/images\/jockeys\/photos\/1024252.jpg"},{"id":1033339,"name":"Tabitha Worsley","county":"Herefordshire","age":27,"daysSinceLastWin":2,"licenseType":"Jump","jockeyImage":null},{"id":1133099,"name":"Miss Maddison Wright","county":"Sussex","age":19,"daysSinceLastWin":null,"licenseType":"Cat A Amateur (Flat)","jockeyImage":null},{"id":1061173,"name":"Mr Archie Wright","county":"Cambridgeshire","age":27,"daysSinceLastWin":2328,"licenseType":"Cat B Amateur","jockeyImage":null},{"id":1173942,"name":"Liam Wright","county":"Suffolk","age":20,"daysSinceLastWin":55,"licenseType":"Apprentice","jockeyImage":null},{"id":1068024,"name":"Mr Joe Wright","county":"North Yorkshire","age":24,"daysSinceLastWin":68,"licenseType":"Cat B Amateur","jockeyImage":null},{"id":1146521,"name":"Toby Wynne","county":"Cheshire","age":19,"daysSinceLastWin":46,"licenseType":"Conditional","jockeyImage":null},{"id":1084457,"name":"Mr Fletcher Yarham","county":"Suffolk","age":24,"daysSinceLastWin":1865,"licenseType":"Cat A Amateur (Flat)","jockeyImage":null},{"id":558003,"name":"Mr Phillip York","county":"Surrey","age":56,"daysSinceLastWin":356,"licenseType":"Cat B Amateur","jockeyImage":null}]}