{"total":657,"per_page":100,"current_page":5,"last_page":7,"from":401,"to":500,"data":[{"id":1088905,"name":"Miss Megan McLoughlin","county":"West Sussex","age":23,"daysSinceLastWin":null,"licenseType":"Cat A Amateur (Flat)","jockeyImage":null},{"id":1051689,"name":"Faye McManoman","county":"Yorkshire","age":29,"daysSinceLastWin":4,"licenseType":"Flat","jockeyImage":null},{"id":1121441,"name":"Danny McMenamin","county":"","age":22,"daysSinceLastWin":2,"licenseType":"Jump","jockeyImage":null},{"id":1095936,"name":"Adam McNamara","county":"Wiltshire","age":25,"daysSinceLastWin":121,"licenseType":"Flat","jockeyImage":null},{"id":1153003,"name":"Oisin McSweeney","county":"North Yorkshire","age":21,"daysSinceLastWin":3,"licenseType":"Apprentice","jockeyImage":null},{"id":1065062,"name":"Miss Meisha Micklewright","county":"Leicestershire","age":28,"daysSinceLastWin":null,"licenseType":"Cat A Amateur (Dual)","jockeyImage":null},{"id":1118051,"name":"Tom Midgley","county":"","age":21,"daysSinceLastWin":8,"licenseType":"Conditional","jockeyImage":null},{"id":978699,"name":"Mr Patrick Millman","county":"Devon","age":30,"daysSinceLastWin":194,"licenseType":"Cat A Amateur (Flat)","jockeyImage":null},{"id":620362,"name":"Mr Guy Mitchell","county":"West Sussex","age":48,"daysSinceLastWin":687,"licenseType":"Cat A Amateur (Dual)","jockeyImage":null},{"id":905569,"name":"Jack Mitchell","county":"Suffolk","age":33,"daysSinceLastWin":5,"licenseType":"Flat","jockeyImage":"https:\/\/media.britishhorseracing.com\/images\/jockeys\/photos\/905569.jpg"},{"id":1028017,"name":"Mr Freddie Mitchell","county":"","age":27,"daysSinceLastWin":131,"licenseType":"Cat B Amateur","jockeyImage":null},{"id":1099384,"name":"Shariq Mohd","county":"Berkshire","age":23,"daysSinceLastWin":null,"licenseType":"Apprentice","jockeyImage":null},{"id":1125029,"name":"Sorin Moldoveanu","county":"","age":30,"daysSinceLastWin":null,"licenseType":"Flat","jockeyImage":null},{"id":968973,"name":"Miss Danielle Mooney","county":"Yorkshire","age":31,"daysSinceLastWin":49,"licenseType":"Cat A Amateur (Flat)","jockeyImage":null},{"id":713116,"name":"Stephen Mooney","county":"Suffolk","age":24,"daysSinceLastWin":400,"licenseType":"Apprentice","jockeyImage":null},{"id":772626,"name":"Ryan Moore","county":"Suffolk","age":38,"daysSinceLastWin":3,"licenseType":"Flat","jockeyImage":"https:\/\/media.britishhorseracing.com\/images\/jockeys\/photos\/772626.jpg"},{"id":942223,"name":"Joshua Moore","county":"West Sussex","age":30,"daysSinceLastWin":107,"licenseType":"Jump","jockeyImage":"https:\/\/media.britishhorseracing.com\/images\/jockeys\/photos\/942223.jpg"},{"id":786598,"name":"Jamie Moore","county":"Sussex","age":37,"daysSinceLastWin":50,"licenseType":"Jump","jockeyImage":"https:\/\/media.britishhorseracing.com\/images\/jockeys\/photos\/786598.jpg"},{"id":1167893,"name":"Mr Otis Morgan","county":"Devon","age":17,"daysSinceLastWin":null,"licenseType":"Cat A Amateur (Jump)","jockeyImage":null},{"id":1097324,"name":"Luca Morgan","county":"Avon","age":20,"daysSinceLastWin":20,"licenseType":"Conditional","jockeyImage":null},{"id":1152465,"name":"Mr Beau Morgan","county":"Somerset","age":17,"daysSinceLastWin":59,"licenseType":"Cat A Amateur (Dual)","jockeyImage":null},{"id":1157821,"name":"Miss Carys Morris","county":"Powys","age":20,"daysSinceLastWin":null,"licenseType":"Cat A Amateur (Jump)","jockeyImage":null},{"id":1021123,"name":"Mr Nath Morris","county":"Surrey","age":30,"daysSinceLastWin":null,"licenseType":"Cat A Amateur (Dual)","jockeyImage":null},{"id":829644,"name":"Luke Morris","county":"Suffolk","age":33,"daysSinceLastWin":4,"licenseType":"Flat","jockeyImage":"https:\/\/media.britishhorseracing.com\/images\/jockeys\/photos\/829644.jpg"},{"id":1132161,"name":"Miss Lizzie Morton","county":"Cheshire","age":23,"daysSinceLastWin":52,"licenseType":"Cat A Amateur (Dual)","jockeyImage":null},{"id":938762,"name":"Nathan Moscrop","county":"Yorkshire","age":32,"daysSinceLastWin":2,"licenseType":"Jump","jockeyImage":null},{"id":1046216,"name":"Paula Muir","county":"County Durham","age":27,"daysSinceLastWin":4,"licenseType":"Flat","jockeyImage":null},{"id":1119098,"name":"Miss Charlotte Mulhall","county":"Yorkshire","age":20,"daysSinceLastWin":459,"licenseType":"Cat A Amateur (Flat)","jockeyImage":null},{"id":780003,"name":"Andrew Mullen","county":"North Yorkshire","age":38,"daysSinceLastWin":2,"licenseType":"Flat","jockeyImage":null},{"id":1009380,"name":"Stephen Mulqueen","county":"Perthshire","age":29,"daysSinceLastWin":29,"licenseType":"Jump","jockeyImage":null},{"id":752057,"name":"Paul Mulrennan","county":"North Yorkshire","age":40,"daysSinceLastWin":2,"licenseType":"Flat","jockeyImage":"https:\/\/media.britishhorseracing.com\/images\/jockeys\/photos\/752057.jpg"},{"id":1156316,"name":"Mr J. J. Murphy-Knight","county":"Herefordshire","age":17,"daysSinceLastWin":null,"licenseType":"Cat A Amateur (Dual)","jockeyImage":null},{"id":965283,"name":"Mr Thomas Murray","county":"Worcestershire","age":32,"daysSinceLastWin":null,"licenseType":"Cat A Amateur (Dual)","jockeyImage":null},{"id":1056589,"name":"Lorcan Murtagh","county":"Dorset","age":23,"daysSinceLastWin":198,"licenseType":"Conditional","jockeyImage":null},{"id":1090250,"name":"Connor Murtagh","county":"North Yorkshire","age":22,"daysSinceLastWin":17,"licenseType":"Apprentice","jockeyImage":null},{"id":1040069,"name":"Daniel Muscutt","county":"Suffolk","age":27,"daysSinceLastWin":4,"licenseType":"Flat","jockeyImage":null},{"id":1114810,"name":"Mr Harry Myddelton","county":"Cheshire","age":21,"daysSinceLastWin":null,"licenseType":"Cat B Amateur","jockeyImage":null},{"id":1071044,"name":"Jordan Nailor","county":"Gloucestershire","age":23,"daysSinceLastWin":68,"licenseType":"Conditional","jockeyImage":null},{"id":1097016,"name":"Mr Jamie Neild","county":"","age":26,"daysSinceLastWin":438,"licenseType":"Cat B Amateur","jockeyImage":null},{"id":1098979,"name":"Mr Henry Newcombe","county":"North Yorkshire","age":24,"daysSinceLastWin":379,"licenseType":"Cat A Amateur (Dual)","jockeyImage":null},{"id":984108,"name":"Mr Joshua Newman","county":"Somerset","age":30,"daysSinceLastWin":77,"licenseType":"Cat B Amateur","jockeyImage":null},{"id":1016551,"name":"Craig Nichol","county":"Roxburghshire","age":28,"daysSinceLastWin":39,"licenseType":"Jump","jockeyImage":null},{"id":1050709,"name":"Megan Nicholls","county":"Yorkshire","age":25,"daysSinceLastWin":98,"licenseType":"Flat \/ Jump","jockeyImage":null},{"id":1178005,"name":"Miss Olive Nicholls","county":"Berkshire","age":16,"daysSinceLastWin":null,"licenseType":"Cat A Amateur (Dual)","jockeyImage":null},{"id":1083109,"name":"Cameron Noble","county":"Suffolk","age":23,"daysSinceLastWin":5,"licenseType":"Flat","jockeyImage":null},{"id":777934,"name":"David Nolan","county":"North Yorkshire","age":37,"daysSinceLastWin":16,"licenseType":"Flat","jockeyImage":null},{"id":1030385,"name":"Micheal Nolan","county":"Somerset","age":32,"daysSinceLastWin":21,"licenseType":"Jump","jockeyImage":null},{"id":1053663,"name":"David Noonan","county":"Devon","age":26,"daysSinceLastWin":26,"licenseType":"Jump","jockeyImage":"https:\/\/media.britishhorseracing.com\/images\/jockeys\/photos\/1053663.jpg"},{"id":1159165,"name":"Miss Leah Noreci","county":"Cumbria","age":18,"daysSinceLastWin":null,"licenseType":"Cat A Amateur (Jump)","jockeyImage":null},{"id":548483,"name":"Franny Norton","county":"","age":51,"daysSinceLastWin":4,"licenseType":"Flat","jockeyImage":"https:\/\/media.britishhorseracing.com\/images\/jockeys\/photos\/548483.jpg"},{"id":1050752,"name":"Hugh Nugent","county":"Herefordshire","age":27,"daysSinceLastWin":88,"licenseType":"Jump","jockeyImage":null},{"id":1116353,"name":"Sean O'Briain","county":"Berkshire","age":22,"daysSinceLastWin":null,"licenseType":"Conditional","jockeyImage":null},{"id":1169418,"name":"Miss Fern O'Brien","county":"Gloucestershire","age":16,"daysSinceLastWin":17,"licenseType":"Cat A Amateur (Dual) \/ Cat A Amateur (Dual)","jockeyImage":null},{"id":936724,"name":"Mr David O'Brien","county":"Cheshire","age":57,"daysSinceLastWin":1523,"licenseType":"Cat B Amateur","jockeyImage":null},{"id":1069416,"name":"Mr Tommie M. O'Brien","county":"Worcestershire","age":30,"daysSinceLastWin":80,"licenseType":"Cat B Amateur","jockeyImage":null},{"id":989385,"name":"Paul O'Brien","county":"Wiltshire","age":30,"daysSinceLastWin":8,"licenseType":"Jump","jockeyImage":null},{"id":895436,"name":"Tom O'Brien","county":"Somerset","age":35,"daysSinceLastWin":47,"licenseType":"Jump","jockeyImage":"https:\/\/media.britishhorseracing.com\/images\/jockeys\/photos\/895436.jpg"},{"id":973826,"name":"Conor O'Farrell","county":"Cumbria","age":32,"daysSinceLastWin":8,"licenseType":"Jump","jockeyImage":"https:\/\/media.britishhorseracing.com\/images\/jockeys\/photos\/973826.jpg"},{"id":1089528,"name":"Katie O'Farrell","county":"Warwickshire","age":32,"daysSinceLastWin":166,"licenseType":"Jump","jockeyImage":null},{"id":1143104,"name":"Mr Jonathan O'Keeffe","county":"North Yorkshire","age":17,"daysSinceLastWin":null,"licenseType":"Cat A Amateur (Flat)","jockeyImage":null},{"id":564234,"name":"Dane O'Neill","county":"Wiltshire","age":46,"daysSinceLastWin":23,"licenseType":"Flat \/ Flat","jockeyImage":"https:\/\/media.britishhorseracing.com\/images\/jockeys\/photos\/564234.jpg"},{"id":1074785,"name":"Jonjo O'Neill Jr.","county":"Gloucestershire","age":24,"daysSinceLastWin":6,"licenseType":"Jump","jockeyImage":"https:\/\/media.britishhorseracing.com\/images\/jockeys\/photos\/1074785.jpg"},{"id":1074787,"name":"Mr A J O'Neill","county":"Gloucestershire","age":23,"daysSinceLastWin":118,"licenseType":"Cat B Amateur","jockeyImage":null},{"id":1011325,"name":"Kieran O'Neill","county":"Suffolk","age":34,"daysSinceLastWin":2,"licenseType":"Flat","jockeyImage":"https:\/\/media.britishhorseracing.com\/images\/jockeys\/photos\/1011325.jpg"},{"id":1119586,"name":"Mr Adam O'Shea","county":"Staffordshire","age":23,"daysSinceLastWin":273,"licenseType":"Cat A Amateur (Dual)","jockeyImage":null},{"id":1075049,"name":"Mr Charlie O'Shea","county":"Cornwall","age":41,"daysSinceLastWin":119,"licenseType":"Cat B Amateur","jockeyImage":null},{"id":701119,"name":"Mr Nick Oliver","county":"Worcestershire","age":43,"daysSinceLastWin":9781,"licenseType":"Cat A Amateur (Jump)","jockeyImage":null},{"id":912599,"name":"Mr Nick Orpwood","county":"Northumberland","age":34,"daysSinceLastWin":105,"licenseType":"Cat B Amateur","jockeyImage":null},{"id":1141893,"name":"Miss Gabriella Orttewell","county":"Somerset","age":22,"daysSinceLastWin":null,"licenseType":"Cat A Amateur (Dual)","jockeyImage":null},{"id":1116228,"name":"Saffie Osborne","county":"Berkshire","age":20,"daysSinceLastWin":5,"licenseType":"Apprentice","jockeyImage":null},{"id":1157949,"name":"Miss Teagan Padgett","county":"Wiltshire","age":17,"daysSinceLastWin":null,"licenseType":"Cat A Amateur (Dual)","jockeyImage":null},{"id":1151403,"name":"Miss Heidi Palin","county":"Warwickshire","age":19,"daysSinceLastWin":null,"licenseType":"Cat A Amateur (Dual)","jockeyImage":null},{"id":1114626,"name":"Mr Oscar Palmer","county":"Wiltshire","age":20,"daysSinceLastWin":15,"licenseType":"Cat A Amateur (Flat)","jockeyImage":null},{"id":997570,"name":"Miss Natalie Parker","county":"Somerset","age":30,"daysSinceLastWin":214,"licenseType":"Cat B Amateur","jockeyImage":null},{"id":1104985,"name":"Erika Parkinson","county":"Nottinghamshire","age":24,"daysSinceLastWin":157,"licenseType":"Apprentice","jockeyImage":null},{"id":1162367,"name":"Miss Elle Paterson","county":"","age":19,"daysSinceLastWin":null,"licenseType":"Cat A Amateur (Flat)","jockeyImage":null},{"id":1048186,"name":"Richard Patrick","county":"Gloucestershire","age":26,"daysSinceLastWin":55,"licenseType":"Jump","jockeyImage":null},{"id":1090518,"name":"Madi Patzelt","county":"North Yorkshire","age":24,"daysSinceLastWin":null,"licenseType":"Apprentice","jockeyImage":null},{"id":1132245,"name":"Laura Pearson","county":"Hampshire","age":21,"daysSinceLastWin":5,"licenseType":"Apprentice","jockeyImage":null},{"id":1134298,"name":"Jonny Peate","county":"North Yorkshire","age":18,"daysSinceLastWin":3,"licenseType":"Apprentice","jockeyImage":null},{"id":1127791,"name":"Marie Perrault","county":"West Sussex","age":23,"daysSinceLastWin":1083,"licenseType":"Apprentice","jockeyImage":null},{"id":974607,"name":"Mr Dale Peters","county":"Cambridgeshire","age":31,"daysSinceLastWin":99,"licenseType":"Cat B Amateur","jockeyImage":null},{"id":1008571,"name":"Mr Will Pettis","county":"Suffolk","age":28,"daysSinceLastWin":2338,"licenseType":"Cat B Amateur","jockeyImage":null},{"id":1136753,"name":"Tia Phillips","county":"Suffolk","age":20,"daysSinceLastWin":null,"licenseType":"Apprentice","jockeyImage":null},{"id":1117166,"name":"Mollie Phillips","county":"","age":21,"daysSinceLastWin":13,"licenseType":"Apprentice","jockeyImage":null},{"id":1060421,"name":"Mr Harry Phipps","county":"Worcestershire","age":26,"daysSinceLastWin":null,"licenseType":"Cat A Amateur (Dual)","jockeyImage":null},{"id":1116136,"name":"Abbie Pierce","county":"Suffolk","age":25,"daysSinceLastWin":201,"licenseType":"Apprentice","jockeyImage":null},{"id":1084868,"name":"Lilly Pinchin","county":"Gloucestershire","age":23,"daysSinceLastWin":4,"licenseType":"Conditional","jockeyImage":null},{"id":1067644,"name":"Rhona Pindar","county":"North Yorkshire","age":25,"daysSinceLastWin":61,"licenseType":"Apprentice","jockeyImage":null},{"id":1152128,"name":"Connor Planas","county":"Suffolk","age":18,"daysSinceLastWin":3,"licenseType":"Apprentice","jockeyImage":null},{"id":957411,"name":"Ben Poste","county":"Herefordshire","age":32,"daysSinceLastWin":33,"licenseType":"Jump","jockeyImage":null},{"id":1033775,"name":"Brendan Powell","county":"Wiltshire","age":27,"daysSinceLastWin":1,"licenseType":"Jump","jockeyImage":"https:\/\/media.britishhorseracing.com\/images\/jockeys\/photos\/1033775.jpg"},{"id":1142730,"name":"Miss Katie Powell","county":"Herefordshire","age":19,"daysSinceLastWin":634,"licenseType":"Cat A Amateur (Jump)","jockeyImage":null},{"id":1135391,"name":"Mr Jack Power","county":"Yorkshire","age":22,"daysSinceLastWin":null,"licenseType":"Cat A Amateur (Dual)","jockeyImage":null},{"id":1105383,"name":"Molly Presland","county":"Suffolk","age":21,"daysSinceLastWin":32,"licenseType":"Apprentice","jockeyImage":null},{"id":1077379,"name":"Charlie Price","county":"South Glamorgan","age":25,"daysSinceLastWin":4,"licenseType":"Conditional","jockeyImage":"https:\/\/media.britishhorseracing.com\/images\/jockeys\/photos\/1077379.jpg"},{"id":977909,"name":"David Prichard","county":"Devon","age":30,"daysSinceLastWin":126,"licenseType":"Jump","jockeyImage":null},{"id":897079,"name":"David Probert","county":"Berkshire","age":33,"daysSinceLastWin":3,"licenseType":"Flat","jockeyImage":"https:\/\/media.britishhorseracing.com\/images\/jockeys\/photos\/897079.jpg"},{"id":1088511,"name":"Mr Frederick Procter","county":"Dorset","age":23,"daysSinceLastWin":272,"licenseType":"Cat B Amateur","jockeyImage":null},{"id":1148004,"name":"William Pyle","county":"Yorkshire","age":20,"daysSinceLastWin":23,"licenseType":"Apprentice","jockeyImage":null}]}