{"total":657,"per_page":100,"current_page":6,"last_page":7,"from":501,"to":600,"data":[{"id":774825,"name":"Tom Queally","county":"Sussex","age":37,"daysSinceLastWin":12,"licenseType":"Flat","jockeyImage":null},{"id":986160,"name":"Jack Quinlan","county":"Suffolk","age":30,"daysSinceLastWin":45,"licenseType":"Jump","jockeyImage":null},{"id":929471,"name":"Sean Quinlan","county":"Cumbria","age":38,"daysSinceLastWin":0,"licenseType":"Jump","jockeyImage":"https:\/\/media.britishhorseracing.com\/images\/jockeys\/photos\/929471.jpg"},{"id":1084351,"name":"Shane Quinlan","county":"Herefordshire","age":27,"daysSinceLastWin":34,"licenseType":"Jump","jockeyImage":null},{"id":555241,"name":"Jimmy Quinn","county":"Cambridgeshire","age":55,"daysSinceLastWin":11,"licenseType":"Flat","jockeyImage":null},{"id":1132015,"name":"Caoilin Quinn","county":"Berkshire","age":21,"daysSinceLastWin":8,"licenseType":"Conditional","jockeyImage":null},{"id":1170788,"name":"Conor Rabbitt","county":"Cumbria","age":20,"daysSinceLastWin":135,"licenseType":"Conditional","jockeyImage":null},{"id":1138480,"name":"Mr Osian Radford","county":"Dyfed","age":21,"daysSinceLastWin":null,"licenseType":"Cat A Amateur (Jump)","jockeyImage":null},{"id":1125921,"name":"Mr Nathan Rahman","county":"South Glamorgan","age":32,"daysSinceLastWin":null,"licenseType":"Cat B Amateur","jockeyImage":null},{"id":1041022,"name":"Miss Morgan Raine","county":"","age":27,"daysSinceLastWin":null,"licenseType":"Cat A Amateur (Dual)","jockeyImage":null},{"id":518981,"name":"Mr Will Ramsay","county":"Berwickshire","age":53,"daysSinceLastWin":898,"licenseType":"Cat B Amateur","jockeyImage":null},{"id":961213,"name":"Alistair Rawlinson","county":"Leicestershire","age":30,"daysSinceLastWin":11,"licenseType":"Flat","jockeyImage":null},{"id":1109861,"name":"Miss Kayleigh Rayner","county":"North Yorkshire","age":24,"daysSinceLastWin":null,"licenseType":"Cat A Amateur (Flat)","jockeyImage":null},{"id":1029637,"name":"Mr John Reddington","county":"Hertford","age":49,"daysSinceLastWin":25,"licenseType":"Cat B Amateur","jockeyImage":null},{"id":1122991,"name":"Sophie Reed","county":"Berkshire","age":23,"daysSinceLastWin":null,"licenseType":"Apprentice","jockeyImage":null},{"id":1054650,"name":"Harry Reed","county":"Wiltshire","age":25,"daysSinceLastWin":32,"licenseType":"Jump","jockeyImage":null},{"id":1109867,"name":"Mr Edward Rees","county":"","age":22,"daysSinceLastWin":null,"licenseType":"Cat B Amateur","jockeyImage":null},{"id":1136598,"name":"Mr Johnathan Rees","county":"Suffolk","age":19,"daysSinceLastWin":null,"licenseType":"Cat A Amateur (Dual)","jockeyImage":null},{"id":1181811,"name":"Miss Danielle Riley","county":"Oxfordshire","age":26,"daysSinceLastWin":null,"licenseType":"Cat A Amateur (Flat)","jockeyImage":null},{"id":1005064,"name":"Conor Ring","county":"","age":29,"daysSinceLastWin":1,"licenseType":"Jump","jockeyImage":null},{"id":857212,"name":"Miss Sarah Rippon","county":"Wiltshire","age":40,"daysSinceLastWin":1229,"licenseType":"Cat B Amateur","jockeyImage":null},{"id":1101387,"name":"Bradley Roberts","county":"Oxfordshire","age":22,"daysSinceLastWin":137,"licenseType":"Conditional","jockeyImage":null},{"id":1138695,"name":"Miss Kaitlen Robinson","county":"Lancashire","age":23,"daysSinceLastWin":null,"licenseType":"Cat A Amateur (Dual)","jockeyImage":null},{"id":1085333,"name":"Ben Robinson","county":"North Yorkshire","age":24,"daysSinceLastWin":5,"licenseType":"Flat \/ Jump","jockeyImage":"https:\/\/media.britishhorseracing.com\/images\/jockeys\/photos\/1085333.jpg"},{"id":1009638,"name":"Mr Mark Robinson","county":"Pembrokeshire","age":28,"daysSinceLastWin":null,"licenseType":"Cat B Amateur","jockeyImage":null},{"id":540649,"name":"Mr Michael Robinson","county":"Lincolnshire","age":54,"daysSinceLastWin":null,"licenseType":"Cat A Amateur (Flat)","jockeyImage":null},{"id":960505,"name":"Miss Immy Robinson","county":"Staffordshire","age":31,"daysSinceLastWin":47,"licenseType":"Cat B Amateur","jockeyImage":null},{"id":1147412,"name":"Mr James Robottom","county":"Nottinghamshire","age":18,"daysSinceLastWin":null,"licenseType":"Cat B Amateur","jockeyImage":null},{"id":1068800,"name":"Callum Rodriguez","county":"North Yorkshire","age":25,"daysSinceLastWin":0,"licenseType":"Flat","jockeyImage":null},{"id":1122662,"name":"George Rooke","county":"Berkshire","age":21,"daysSinceLastWin":4,"licenseType":"Flat","jockeyImage":null},{"id":1138514,"name":"Deon Le Roux","county":"Berkshire","age":20,"daysSinceLastWin":23,"licenseType":"Apprentice","jockeyImage":null},{"id":1084514,"name":"Harry Russell","county":"North Yorkshire","age":24,"daysSinceLastWin":9,"licenseType":"Apprentice","jockeyImage":null},{"id":1111334,"name":"Rossa Ryan","county":"Berkshire","age":22,"daysSinceLastWin":11,"licenseType":"Flat","jockeyImage":"https:\/\/media.britishhorseracing.com\/images\/jockeys\/photos\/1111334.jpg"},{"id":1156456,"name":"Miss Isabelle Ryder","county":"Berkshire","age":20,"daysSinceLastWin":null,"licenseType":"Cat A Amateur (Dual)","jockeyImage":null},{"id":1041024,"name":"Miss Lauren Sanders","county":"Yorkshire","age":30,"daysSinceLastWin":null,"licenseType":"Cat A Amateur (Dual)","jockeyImage":null},{"id":1073863,"name":"Ben Sanderson","county":"Lanarkshire","age":24,"daysSinceLastWin":2,"licenseType":"Apprentice","jockeyImage":null},{"id":1101445,"name":"Gianluca Sanna","county":"North Yorkshire","age":25,"daysSinceLastWin":18,"licenseType":"Apprentice","jockeyImage":null},{"id":1012162,"name":"Daniel Sansom","county":"Dorset","age":28,"daysSinceLastWin":31,"licenseType":"Jump","jockeyImage":null},{"id":1038146,"name":"Tyler Saunders","county":"Hampshire","age":26,"daysSinceLastWin":4,"licenseType":"Flat","jockeyImage":null},{"id":1159562,"name":"Mr Lewis Saunders","county":"Berkshire","age":18,"daysSinceLastWin":null,"licenseType":"Cat A Amateur (Dual)","jockeyImage":null},{"id":1009383,"name":"Jack Savage","county":"Gloucestershire","age":28,"daysSinceLastWin":287,"licenseType":"Jump","jockeyImage":null},{"id":1048728,"name":"Kieran Schofield","county":"Yorkshire","age":28,"daysSinceLastWin":27,"licenseType":"Flat","jockeyImage":null},{"id":930374,"name":"Nick Scholfield","county":"Somerset","age":33,"daysSinceLastWin":27,"licenseType":"Jump","jockeyImage":"https:\/\/media.britishhorseracing.com\/images\/jockeys\/photos\/930374.jpg"},{"id":1123515,"name":"Mr Luke Scott","county":"Oxfordshire","age":20,"daysSinceLastWin":88,"licenseType":"Cat B Amateur","jockeyImage":null},{"id":1036527,"name":"Rowan Scott","county":"Yorkshire","age":26,"daysSinceLastWin":6,"licenseType":"Flat","jockeyImage":null},{"id":731086,"name":"Tom Scudamore","county":"Somerset","age":40,"daysSinceLastWin":14,"licenseType":"Jump","jockeyImage":"https:\/\/media.britishhorseracing.com\/images\/jockeys\/photos\/731086.jpg"},{"id":1101501,"name":"Oliver Searle","county":"Devon","age":23,"daysSinceLastWin":698,"licenseType":"Apprentice","jockeyImage":null},{"id":736571,"name":"Mr Hakan Sensoy","county":"Hertfordshire","age":53,"daysSinceLastWin":null,"licenseType":"Cat A Amateur (Flat)","jockeyImage":null},{"id":1169324,"name":"Ryan Sexton","county":"Yorkshire","age":18,"daysSinceLastWin":1,"licenseType":"Apprentice","jockeyImage":null},{"id":1132948,"name":"William Shanahan","county":"North Yorkshire","age":32,"daysSinceLastWin":38,"licenseType":"Jump","jockeyImage":null},{"id":1081433,"name":"Harrison Shaw","county":"Yorkshire","age":26,"daysSinceLastWin":2,"licenseType":"Flat","jockeyImage":"https:\/\/media.britishhorseracing.com\/images\/jockeys\/photos\/1081433.jpg"},{"id":1042342,"name":"Gavin Sheehan","county":"Berkshire","age":30,"daysSinceLastWin":1,"licenseType":"Jump","jockeyImage":"https:\/\/media.britishhorseracing.com\/images\/jockeys\/photos\/1042342.jpg"},{"id":1058437,"name":"Callum Shepherd","county":"Suffolk","age":24,"daysSinceLastWin":2,"licenseType":"Flat \/ Flat","jockeyImage":"https:\/\/media.britishhorseracing.com\/images\/jockeys\/photos\/1058437.jpg"},{"id":1054049,"name":"Stan Sheppard","county":"Hereford","age":24,"daysSinceLastWin":27,"licenseType":"Jump","jockeyImage":null},{"id":1048261,"name":"Kieran Shoemark","county":"Berkshire","age":26,"daysSinceLastWin":10,"licenseType":"Flat","jockeyImage":"https:\/\/media.britishhorseracing.com\/images\/jockeys\/photos\/1048261.jpg"},{"id":1106457,"name":"Miss Katie Sinclair","county":"Gloucestershire","age":22,"daysSinceLastWin":null,"licenseType":"Cat A Amateur (Jump)","jockeyImage":null},{"id":906246,"name":"Harry Skelton","county":"Warwickshire","age":32,"daysSinceLastWin":27,"licenseType":"Jump","jockeyImage":"https:\/\/media.britishhorseracing.com\/images\/jockeys\/photos\/906246.jpg"},{"id":1138482,"name":"Mr Kevin Skelton","county":"","age":26,"daysSinceLastWin":null,"licenseType":"Cat A Amateur (Flat)","jockeyImage":null},{"id":1013577,"name":"Bridget Andrews","county":"Warwickshire","age":28,"daysSinceLastWin":88,"licenseType":"Jump","jockeyImage":"https:\/\/media.britishhorseracing.com\/images\/jockeys\/photos\/1013577.jpg"},{"id":976947,"name":"Nick Slatter","county":"Gloucestershire","age":29,"daysSinceLastWin":56,"licenseType":"Jump","jockeyImage":null},{"id":1153712,"name":"Jefferson Smith","county":"Suffolk","age":27,"daysSinceLastWin":3,"licenseType":"Flat","jockeyImage":null},{"id":826546,"name":"Miss Becky Smith","county":"North Yorkshire","age":35,"daysSinceLastWin":10,"licenseType":"Cat B Amateur","jockeyImage":null},{"id":1121470,"name":"Miss Sophie Smith","county":"Leicestershire","age":21,"daysSinceLastWin":303,"licenseType":"Cat A Amateur (Dual) \/ Cat A Amateur (Dual)","jockeyImage":null},{"id":1085849,"name":"Emma Smith-Chaston","county":"North Yorkshire","age":23,"daysSinceLastWin":0,"licenseType":"Conditional","jockeyImage":null},{"id":773679,"name":"Mr Jody Sole","county":"Suffolk","age":44,"daysSinceLastWin":132,"licenseType":"Cat B Amateur","jockeyImage":null},{"id":1074394,"name":"Mrs Vicki Sollitt","county":"Gloucestershire","age":43,"daysSinceLastWin":99,"licenseType":"Cat A Amateur (Jump)","jockeyImage":null},{"id":1113802,"name":"Mr Liam Spencer","county":"Berkshire","age":22,"daysSinceLastWin":null,"licenseType":"Cat A Amateur (Dual)","jockeyImage":null},{"id":731878,"name":"Jamie Spencer","county":"Suffolk","age":42,"daysSinceLastWin":4,"licenseType":"Flat","jockeyImage":"https:\/\/media.britishhorseracing.com\/images\/jockeys\/photos\/731878.jpg"},{"id":1133657,"name":"Mr Charlie Sprake","county":"Dorset","age":19,"daysSinceLastWin":452,"licenseType":"Cat B Amateur","jockeyImage":null},{"id":1110261,"name":"Oliver Stammers","county":"North Yorkshire","age":21,"daysSinceLastWin":9,"licenseType":"Apprentice","jockeyImage":null},{"id":805317,"name":"Mr Rupert Stearn","county":"Norfolk","age":38,"daysSinceLastWin":4085,"licenseType":"Cat B Amateur","jockeyImage":null},{"id":1083184,"name":"Miss Kayleigh Stephens","county":"Wiltshire","age":25,"daysSinceLastWin":1818,"licenseType":"Cat A Amateur (Flat)","jockeyImage":null},{"id":1105923,"name":"Miss Heidi Stevens","county":"Devon","age":26,"daysSinceLastWin":null,"licenseType":"Cat B Amateur","jockeyImage":null},{"id":1095557,"name":"Miss Suzannah Stevens","county":"Berkshire","age":25,"daysSinceLastWin":null,"licenseType":"Cat A Amateur (Flat)","jockeyImage":null},{"id":1087196,"name":"Miss Alice Stevens","county":"Warwickshire","age":23,"daysSinceLastWin":37,"licenseType":"Cat B Amateur","jockeyImage":null},{"id":741600,"name":"Mr Joseph Stevenson","county":"Northamptonshire","age":40,"daysSinceLastWin":5853,"licenseType":"Cat B Amateur","jockeyImage":null},{"id":1044261,"name":"Louis Steward","county":"Suffolk","age":26,"daysSinceLastWin":4,"licenseType":"Flat","jockeyImage":null},{"id":1136688,"name":"Miss Jess Stewart","county":"","age":18,"daysSinceLastWin":null,"licenseType":"Cat A Amateur (Jump)","jockeyImage":null},{"id":1062725,"name":"Lewis Stones","county":"Warwickshire","age":25,"daysSinceLastWin":55,"licenseType":"Conditional \/ Jump","jockeyImage":null},{"id":1175033,"name":"Collen Storey","county":"Suffolk","age":28,"daysSinceLastWin":5,"licenseType":"Flat","jockeyImage":null},{"id":1040967,"name":"Kevin Stott","county":"North Yorkshire","age":27,"daysSinceLastWin":5,"licenseType":"Flat","jockeyImage":"https:\/\/media.britishhorseracing.com\/images\/jockeys\/photos\/1040967.jpg"},{"id":979102,"name":"James Sullivan","county":"North Yorkshire","age":35,"daysSinceLastWin":19,"licenseType":"Flat","jockeyImage":"https:\/\/media.britishhorseracing.com\/images\/jockeys\/photos\/979102.jpg"},{"id":1093025,"name":"Mr Peter Summers","county":"","age":24,"daysSinceLastWin":476,"licenseType":"Cat B Amateur","jockeyImage":null},{"id":1145324,"name":"Miss Charlotte Summersby","county":"Devon","age":18,"daysSinceLastWin":null,"licenseType":"Cat A Amateur (Jump)","jockeyImage":null},{"id":752538,"name":"Mrs Jo Supple","county":"Somerset","age":40,"daysSinceLastWin":1214,"licenseType":"Cat B Amateur","jockeyImage":null},{"id":1112077,"name":"Mr Ben Sutton","county":"Gloucestershire","age":22,"daysSinceLastWin":null,"licenseType":"Cat B Amateur","jockeyImage":null},{"id":797790,"name":"Dale Swift","county":"North Yorkshire","age":36,"daysSinceLastWin":10,"licenseType":"Flat","jockeyImage":null},{"id":1075891,"name":"Emma Taff","county":"","age":25,"daysSinceLastWin":322,"licenseType":"Apprentice","jockeyImage":null},{"id":1016187,"name":"Robert Tart","county":"Suffolk","age":29,"daysSinceLastWin":32,"licenseType":"Flat","jockeyImage":null},{"id":965445,"name":"Ryan Tate","county":"Cambridgeshire","age":28,"daysSinceLastWin":291,"licenseType":"Flat","jockeyImage":null},{"id":1041276,"name":"Mr Jack Teal","county":"Yorkshire","age":27,"daysSinceLastWin":66,"licenseType":"Cat B Amateur","jockeyImage":null},{"id":1102259,"name":"Mr William Thirlby","county":"Warwickshire","age":23,"daysSinceLastWin":1144,"licenseType":"Cat B Amateur","jockeyImage":null},{"id":1149360,"name":"Mr Joshua Thompson","county":"North Yorkshire","age":17,"daysSinceLastWin":null,"licenseType":"Cat A Amateur (Dual)","jockeyImage":null},{"id":1071492,"name":"Alexander Thorne","county":"Wiltshire","age":26,"daysSinceLastWin":285,"licenseType":"Jump","jockeyImage":null},{"id":1112627,"name":"Jay Tidball","county":"Dorset","age":21,"daysSinceLastWin":34,"licenseType":"Conditional","jockeyImage":null},{"id":1134525,"name":"Oliver Timms","county":"Berkshire","age":19,"daysSinceLastWin":10,"licenseType":"Apprentice","jockeyImage":null},{"id":1177786,"name":"Ethan Tindall","county":"North Yorkshire","age":19,"daysSinceLastWin":null,"licenseType":"Apprentice","jockeyImage":null},{"id":1103532,"name":"Charlie Todd","county":"West Midlands","age":21,"daysSinceLastWin":71,"licenseType":"Conditional \/ Jump","jockeyImage":null},{"id":1012225,"name":"Miss Megan Trainor","county":"East Sussex","age":29,"daysSinceLastWin":1060,"licenseType":"Cat A Amateur (Dual)","jockeyImage":null},{"id":1083712,"name":"Mr Liam Trott","county":"Somerset","age":24,"daysSinceLastWin":null,"licenseType":"Cat A Amateur (Jump)","jockeyImage":null}]}