{"total":658,"per_page":250,"current_page":3,"last_page":3,"from":501,"to":658,"data":[{"id":1148004,"name":"William Pyle","county":"Yorkshire","age":20,"daysSinceLastWin":26,"licenseType":"Apprentice","jockeyImage":null},{"id":774825,"name":"Tom Queally","county":"Sussex","age":37,"daysSinceLastWin":7,"licenseType":"Flat","jockeyImage":null},{"id":986160,"name":"Jack Quinlan","county":"Suffolk","age":30,"daysSinceLastWin":113,"licenseType":"Jump \/ Jump","jockeyImage":null},{"id":929471,"name":"Sean Quinlan","county":"Cumbria","age":38,"daysSinceLastWin":3,"licenseType":"Jump \/ Jump","jockeyImage":"https:\/\/media.britishhorseracing.com\/images\/jockeys\/photos\/929471.jpg"},{"id":1084351,"name":"Shane Quinlan","county":"Herefordshire","age":27,"daysSinceLastWin":102,"licenseType":"Jump","jockeyImage":null},{"id":555241,"name":"Jimmy Quinn","county":"Cambridgeshire","age":55,"daysSinceLastWin":79,"licenseType":"Flat","jockeyImage":null},{"id":1132015,"name":"Caoilin Quinn","county":"Berkshire","age":21,"daysSinceLastWin":76,"licenseType":"Conditional","jockeyImage":null},{"id":1170788,"name":"Conor Rabbitt","county":"Cumbria","age":20,"daysSinceLastWin":203,"licenseType":"Conditional","jockeyImage":null},{"id":1125921,"name":"Mr Nathan Rahman","county":"South Glamorgan","age":32,"daysSinceLastWin":null,"licenseType":"Cat B Amateur","jockeyImage":null},{"id":1041022,"name":"Miss Morgan Raine","county":"","age":27,"daysSinceLastWin":null,"licenseType":"Cat A Amateur (Dual)","jockeyImage":null},{"id":518981,"name":"Mr Will Ramsay","county":"Berwickshire","age":53,"daysSinceLastWin":966,"licenseType":"Cat B Amateur","jockeyImage":null},{"id":961213,"name":"Alistair Rawlinson","county":"Leicestershire","age":30,"daysSinceLastWin":11,"licenseType":"Flat","jockeyImage":null},{"id":1109861,"name":"Miss Kayleigh Rayner","county":"North Yorkshire","age":24,"daysSinceLastWin":null,"licenseType":"Cat A Amateur (Flat)","jockeyImage":null},{"id":1029637,"name":"Mr John Reddington","county":"Hertfordshire","age":50,"daysSinceLastWin":23,"licenseType":"Cat B Amateur","jockeyImage":null},{"id":1122991,"name":"Sophie Reed","county":"Berkshire","age":23,"daysSinceLastWin":null,"licenseType":"Apprentice","jockeyImage":null},{"id":1054650,"name":"Harry Reed","county":"Wiltshire","age":25,"daysSinceLastWin":59,"licenseType":"Jump","jockeyImage":null},{"id":1109867,"name":"Mr Edward Rees","county":"","age":23,"daysSinceLastWin":null,"licenseType":"Cat B Amateur","jockeyImage":null},{"id":1136598,"name":"Mr Johnathan Rees","county":"Suffolk","age":19,"daysSinceLastWin":null,"licenseType":"Cat A Amateur (Dual)","jockeyImage":null},{"id":1181811,"name":"Miss Danielle Riley","county":"Oxfordshire","age":26,"daysSinceLastWin":null,"licenseType":"Cat A Amateur (Flat)","jockeyImage":null},{"id":1005064,"name":"Conor Ring","county":"","age":29,"daysSinceLastWin":69,"licenseType":"Jump","jockeyImage":null},{"id":857212,"name":"Miss Sarah Rippon","county":"Wiltshire","age":40,"daysSinceLastWin":1297,"licenseType":"Cat B Amateur","jockeyImage":null},{"id":1101387,"name":"Bradley Roberts","county":"Oxfordshire","age":22,"daysSinceLastWin":12,"licenseType":"Conditional","jockeyImage":null},{"id":1138695,"name":"Miss Kaitlen Robinson","county":"Lancashire","age":24,"daysSinceLastWin":null,"licenseType":"Cat A Amateur (Dual)","jockeyImage":null},{"id":1085333,"name":"Ben Robinson","county":"North Yorkshire","age":24,"daysSinceLastWin":7,"licenseType":"Flat \/ Jump","jockeyImage":"https:\/\/media.britishhorseracing.com\/images\/jockeys\/photos\/1085333.jpg"},{"id":1009638,"name":"Mr Mark Robinson","county":"Pembrokeshire","age":28,"daysSinceLastWin":null,"licenseType":"Cat B Amateur","jockeyImage":null},{"id":540649,"name":"Mr Michael Robinson","county":"Lincolnshire","age":54,"daysSinceLastWin":null,"licenseType":"Cat A Amateur (Flat)","jockeyImage":null},{"id":960505,"name":"Miss Immy Robinson","county":"Staffordshire","age":31,"daysSinceLastWin":115,"licenseType":"Cat B Amateur","jockeyImage":null},{"id":1147412,"name":"Mr James Robottom","county":"Nottinghamshire","age":19,"daysSinceLastWin":null,"licenseType":"Cat B Amateur","jockeyImage":null},{"id":1068800,"name":"Callum Rodriguez","county":"North Yorkshire","age":25,"daysSinceLastWin":0,"licenseType":"Flat","jockeyImage":null},{"id":1122662,"name":"George Rooke","county":"Berkshire","age":21,"daysSinceLastWin":2,"licenseType":"Flat","jockeyImage":null},{"id":1138514,"name":"Deon Le Roux","county":"Berkshire","age":20,"daysSinceLastWin":91,"licenseType":"Apprentice","jockeyImage":null},{"id":1084514,"name":"Harry Russell","county":"North Yorkshire","age":24,"daysSinceLastWin":36,"licenseType":"Apprentice","jockeyImage":null},{"id":1111334,"name":"Rossa Ryan","county":"Berkshire","age":22,"daysSinceLastWin":7,"licenseType":"Flat","jockeyImage":"https:\/\/media.britishhorseracing.com\/images\/jockeys\/photos\/1111334.jpg"},{"id":1156456,"name":"Miss Isabelle Ryder","county":"Berkshire","age":20,"daysSinceLastWin":null,"licenseType":"Cat A Amateur (Dual)","jockeyImage":null},{"id":1041024,"name":"Miss Lauren Sanders","county":"Yorkshire","age":30,"daysSinceLastWin":null,"licenseType":"Cat A Amateur (Dual)","jockeyImage":null},{"id":1073863,"name":"Ben Sanderson","county":"West Midlands","age":24,"daysSinceLastWin":49,"licenseType":"Apprentice","jockeyImage":null},{"id":1101445,"name":"Gianluca Sanna","county":"Yorkshire","age":25,"daysSinceLastWin":86,"licenseType":"Apprentice","jockeyImage":null},{"id":1012162,"name":"Daniel Sansom","county":"Dorset","age":29,"daysSinceLastWin":99,"licenseType":"Jump","jockeyImage":null},{"id":1038146,"name":"Tyler Saunders","county":"Hampshire","age":26,"daysSinceLastWin":59,"licenseType":"Flat","jockeyImage":null},{"id":1159562,"name":"Mr Lewis Saunders","county":"Berkshire","age":18,"daysSinceLastWin":null,"licenseType":"Cat A Amateur (Dual)","jockeyImage":null},{"id":1009383,"name":"Jack Savage","county":"Gloucestershire","age":28,"daysSinceLastWin":355,"licenseType":"Jump","jockeyImage":null},{"id":1048728,"name":"Kieran Schofield","county":"Yorkshire","age":28,"daysSinceLastWin":95,"licenseType":"Flat","jockeyImage":null},{"id":930374,"name":"Nick Scholfield","county":"Somerset","age":33,"daysSinceLastWin":26,"licenseType":"Jump","jockeyImage":"https:\/\/media.britishhorseracing.com\/images\/jockeys\/photos\/930374.jpg"},{"id":1123515,"name":"Luke Scott","county":"Oxfordshire","age":20,"daysSinceLastWin":0,"licenseType":"Conditional","jockeyImage":null},{"id":1036527,"name":"Rowan Scott","county":"Yorkshire","age":26,"daysSinceLastWin":0,"licenseType":"Flat","jockeyImage":null},{"id":731086,"name":"Tom Scudamore","county":"Somerset","age":40,"daysSinceLastWin":17,"licenseType":"Jump \/ Jump","jockeyImage":"https:\/\/media.britishhorseracing.com\/images\/jockeys\/photos\/731086.jpg"},{"id":1101501,"name":"Oliver Searle","county":"Devon","age":23,"daysSinceLastWin":23,"licenseType":"Apprentice","jockeyImage":null},{"id":736571,"name":"Mr Hakan Sensoy","county":"Hertfordshire","age":53,"daysSinceLastWin":null,"licenseType":"Cat A Amateur (Flat)","jockeyImage":null},{"id":1169324,"name":"Ryan Sexton","county":"Yorkshire","age":19,"daysSinceLastWin":1,"licenseType":"Apprentice","jockeyImage":null},{"id":1132948,"name":"William Shanahan","county":"Cheshire","age":32,"daysSinceLastWin":106,"licenseType":"Jump","jockeyImage":null},{"id":1081433,"name":"Harrison Shaw","county":"Yorkshire","age":26,"daysSinceLastWin":3,"licenseType":"Flat","jockeyImage":"https:\/\/media.britishhorseracing.com\/images\/jockeys\/photos\/1081433.jpg"},{"id":1042342,"name":"Gavin Sheehan","county":"Berkshire","age":30,"daysSinceLastWin":4,"licenseType":"Jump \/ Jump","jockeyImage":"https:\/\/media.britishhorseracing.com\/images\/jockeys\/photos\/1042342.jpg"},{"id":1058437,"name":"Callum Shepherd","county":"Suffolk","age":25,"daysSinceLastWin":0,"licenseType":"Flat","jockeyImage":"https:\/\/media.britishhorseracing.com\/images\/jockeys\/photos\/1058437.jpg"},{"id":1054049,"name":"Stan Sheppard","county":"Hereford","age":25,"daysSinceLastWin":57,"licenseType":"Jump","jockeyImage":null},{"id":1048261,"name":"Kieran Shoemark","county":"Wiltshire","age":26,"daysSinceLastWin":18,"licenseType":"Flat","jockeyImage":"https:\/\/media.britishhorseracing.com\/images\/jockeys\/photos\/1048261.jpg"},{"id":1106457,"name":"Miss Katie Sinclair","county":"Gloucestershire","age":22,"daysSinceLastWin":null,"licenseType":"Cat A Amateur (Jump)","jockeyImage":null},{"id":906246,"name":"Harry Skelton","county":"Warwickshire","age":33,"daysSinceLastWin":0,"licenseType":"Jump \/ Jump","jockeyImage":"https:\/\/media.britishhorseracing.com\/images\/jockeys\/photos\/906246.jpg"},{"id":1138482,"name":"Mr Kevin Skelton","county":"","age":26,"daysSinceLastWin":null,"licenseType":"Cat A Amateur (Flat)","jockeyImage":null},{"id":1013577,"name":"Bridget Andrews","county":"Warwickshire","age":29,"daysSinceLastWin":156,"licenseType":"Jump","jockeyImage":"https:\/\/media.britishhorseracing.com\/images\/jockeys\/photos\/1013577.jpg"},{"id":976947,"name":"Nick Slatter","county":"Gloucestershire","age":30,"daysSinceLastWin":124,"licenseType":"Jump","jockeyImage":null},{"id":1153712,"name":"Jefferson Smith","county":"Suffolk","age":27,"daysSinceLastWin":21,"licenseType":"Flat","jockeyImage":null},{"id":826546,"name":"Miss Becky Smith","county":"North Yorkshire","age":35,"daysSinceLastWin":42,"licenseType":"Cat B Amateur","jockeyImage":null},{"id":1121470,"name":"Miss Sophie Smith","county":"Leicestershire","age":21,"daysSinceLastWin":371,"licenseType":"Cat A Amateur (Dual)","jockeyImage":null},{"id":1085849,"name":"Emma Smith-Chaston","county":"North Yorkshire","age":23,"daysSinceLastWin":18,"licenseType":"Conditional","jockeyImage":null},{"id":773679,"name":"Mr Jody Sole","county":"Suffolk","age":44,"daysSinceLastWin":200,"licenseType":"Cat B Amateur","jockeyImage":null},{"id":1074394,"name":"Mrs Vicki Sollitt","county":"Gloucestershire","age":43,"daysSinceLastWin":167,"licenseType":"Cat A Amateur (Jump)","jockeyImage":null},{"id":1113802,"name":"Mr Liam Spencer","county":"Oxford","age":22,"daysSinceLastWin":null,"licenseType":"Cat A Amateur (Dual)","jockeyImage":null},{"id":731878,"name":"Jamie Spencer","county":"Suffolk","age":42,"daysSinceLastWin":42,"licenseType":"Flat","jockeyImage":"https:\/\/media.britishhorseracing.com\/images\/jockeys\/photos\/731878.jpg"},{"id":1133657,"name":"Mr Charlie Sprake","county":"","age":19,"daysSinceLastWin":520,"licenseType":"Cat B Amateur","jockeyImage":null},{"id":1110261,"name":"Oliver Stammers","county":"North Yorkshire","age":21,"daysSinceLastWin":1,"licenseType":"Apprentice","jockeyImage":null},{"id":805317,"name":"Mr Rupert Stearn","county":"Norfolk","age":38,"daysSinceLastWin":4153,"licenseType":"Cat B Amateur","jockeyImage":null},{"id":1083184,"name":"Miss Kayleigh Stephens","county":"Wiltshire","age":25,"daysSinceLastWin":42,"licenseType":"Cat A Amateur (Flat)","jockeyImage":null},{"id":1105923,"name":"Miss Heidi Stevens","county":"Devon","age":26,"daysSinceLastWin":null,"licenseType":"Cat B Amateur","jockeyImage":null},{"id":1095557,"name":"Miss Suzannah Stevens","county":"Berkshire","age":25,"daysSinceLastWin":null,"licenseType":"Cat A Amateur (Flat)","jockeyImage":null},{"id":1087196,"name":"Miss Alice Stevens","county":"Warwickshire","age":24,"daysSinceLastWin":105,"licenseType":"Cat B Amateur","jockeyImage":null},{"id":741600,"name":"Mr Joseph Stevenson","county":"Northamptonshire","age":40,"daysSinceLastWin":5921,"licenseType":"Cat B Amateur","jockeyImage":null},{"id":1044261,"name":"Louis Steward","county":"Suffolk","age":27,"daysSinceLastWin":7,"licenseType":"Flat","jockeyImage":null},{"id":1136688,"name":"Miss Jess Stewart","county":"","age":19,"daysSinceLastWin":null,"licenseType":"Cat A Amateur (Jump)","jockeyImage":null},{"id":1062725,"name":"Lewis Stones","county":"Warwickshire","age":26,"daysSinceLastWin":123,"licenseType":"Jump","jockeyImage":null},{"id":1175033,"name":"Collen Storey","county":"Suffolk","age":28,"daysSinceLastWin":51,"licenseType":"Flat","jockeyImage":null},{"id":1040967,"name":"Kevin Stott","county":"North Yorkshire","age":28,"daysSinceLastWin":2,"licenseType":"Flat","jockeyImage":"https:\/\/media.britishhorseracing.com\/images\/jockeys\/photos\/1040967.jpg"},{"id":979102,"name":"James Sullivan","county":"North Yorkshire","age":35,"daysSinceLastWin":2,"licenseType":"Flat","jockeyImage":"https:\/\/media.britishhorseracing.com\/images\/jockeys\/photos\/979102.jpg"},{"id":1093025,"name":"Mr Peter Summers","county":"","age":24,"daysSinceLastWin":544,"licenseType":"Cat B Amateur","jockeyImage":null},{"id":1145324,"name":"Miss Charlotte Summersby","county":"Devon","age":18,"daysSinceLastWin":null,"licenseType":"Cat A Amateur (Jump)","jockeyImage":null},{"id":752538,"name":"Mrs Jo Supple","county":"Somerset","age":40,"daysSinceLastWin":29,"licenseType":"Cat B Amateur","jockeyImage":null},{"id":1112077,"name":"Mr Ben Sutton","county":"Gloucestershire","age":22,"daysSinceLastWin":null,"licenseType":"Cat B Amateur","jockeyImage":null},{"id":797790,"name":"Dale Swift","county":"Yorkshire","age":37,"daysSinceLastWin":16,"licenseType":"Flat","jockeyImage":null},{"id":1153042,"name":"Mohammed Tabti","county":"","age":20,"daysSinceLastWin":40,"licenseType":"Apprentice","jockeyImage":null},{"id":1075891,"name":"Emma Taff","county":"","age":25,"daysSinceLastWin":390,"licenseType":"Apprentice","jockeyImage":null},{"id":1016187,"name":"Robert Tart","county":"Suffolk","age":29,"daysSinceLastWin":100,"licenseType":"Flat","jockeyImage":null},{"id":1041276,"name":"Mr Jack Teal","county":"Yorkshire","age":27,"daysSinceLastWin":134,"licenseType":"Cat B Amateur","jockeyImage":null},{"id":1102259,"name":"Mr William Thirlby","county":"Warwickshire","age":23,"daysSinceLastWin":1212,"licenseType":"Cat B Amateur","jockeyImage":null},{"id":1148247,"name":"Miss Holly Thomas","county":"Cheshire","age":25,"daysSinceLastWin":null,"licenseType":"Cat A Amateur (Flat)","jockeyImage":null},{"id":1127095,"name":"Courtney Thomas","county":"Berkshire","age":21,"daysSinceLastWin":null,"licenseType":"Apprentice","jockeyImage":null},{"id":1149360,"name":"Mr Joshua Thompson","county":"","age":17,"daysSinceLastWin":null,"licenseType":"Cat A Amateur (Dual)","jockeyImage":null},{"id":1071492,"name":"Alexander Thorne","county":"Inverness-shire","age":27,"daysSinceLastWin":353,"licenseType":"Jump","jockeyImage":null},{"id":1054535,"name":"Miss Nicola Thornton","county":"Lancashire","age":27,"daysSinceLastWin":null,"licenseType":"Cat A Amateur (Flat)","jockeyImage":null},{"id":1112627,"name":"Jay Tidball","county":"Shropshire","age":22,"daysSinceLastWin":24,"licenseType":"Conditional","jockeyImage":null},{"id":1134525,"name":"Oliver Timms","county":"Berkshire","age":19,"daysSinceLastWin":78,"licenseType":"Apprentice","jockeyImage":null},{"id":1177786,"name":"Ethan Tindall","county":"North Yorkshire","age":19,"daysSinceLastWin":null,"licenseType":"Apprentice","jockeyImage":null},{"id":1103532,"name":"Charlie Todd","county":"West Midlands","age":21,"daysSinceLastWin":4,"licenseType":"Jump","jockeyImage":null},{"id":1012225,"name":"Miss Megan Trainor","county":"East Sussex","age":29,"daysSinceLastWin":1128,"licenseType":"Cat A Amateur (Dual)","jockeyImage":null},{"id":1121645,"name":"Olivia Tubb","county":"Berkshire","age":20,"daysSinceLastWin":null,"licenseType":"Apprentice","jockeyImage":null},{"id":1057042,"name":"Harriet Tucker","county":"Oxfordshire","age":26,"daysSinceLastWin":429,"licenseType":"Flat \/ Jump","jockeyImage":null},{"id":811703,"name":"Daniel Tudhope","county":"North Yorkshire","age":36,"daysSinceLastWin":4,"licenseType":"Flat","jockeyImage":"https:\/\/media.britishhorseracing.com\/images\/jockeys\/photos\/811703.jpg"},{"id":1135134,"name":"Jack Tudor","county":"Mid Glamorgan","age":20,"daysSinceLastWin":37,"licenseType":"Jump","jockeyImage":null},{"id":1130384,"name":"Miss Anna Tuer","county":"North Yorkshire","age":20,"daysSinceLastWin":null,"licenseType":"Cat A Amateur (Flat)","jockeyImage":null},{"id":618260,"name":"Mr David Turner","county":"Wiltshire","age":44,"daysSinceLastWin":2091,"licenseType":"Cat B Amateur","jockeyImage":null},{"id":961085,"name":"Miss Lucy Turner","county":"Herefordshire","age":29,"daysSinceLastWin":191,"licenseType":"Cat B Amateur","jockeyImage":null},{"id":764505,"name":"Hayley Turner","county":"Suffolk","age":39,"daysSinceLastWin":3,"licenseType":"Flat","jockeyImage":"https:\/\/media.britishhorseracing.com\/images\/jockeys\/photos\/764505.jpg"},{"id":1114850,"name":"Mr James Turner","county":"Buckinghamshire","age":20,"daysSinceLastWin":364,"licenseType":"Cat B Amateur","jockeyImage":null},{"id":990402,"name":"Sam Twiston-Davies","county":"Gloucestershire","age":29,"daysSinceLastWin":0,"licenseType":"Jump \/ Jump","jockeyImage":"https:\/\/media.britishhorseracing.com\/images\/jockeys\/photos\/990402.jpg"},{"id":1108853,"name":"Angus Villiers","county":"Suffolk","age":20,"daysSinceLastWin":284,"licenseType":"Apprentice","jockeyImage":null},{"id":1154560,"name":"Alec Voikhansky","county":"","age":18,"daysSinceLastWin":43,"licenseType":"Apprentice","jockeyImage":null},{"id":562156,"name":"Dr Misha Voikhansky","county":"Staffordshire","age":56,"daysSinceLastWin":63,"licenseType":"Cat A Amateur (Flat)","jockeyImage":null},{"id":1160864,"name":"Miss Abigail Voyce","county":"Pembrokeshire","age":21,"daysSinceLastWin":null,"licenseType":"Cat A Amateur (Dual)","jockeyImage":null},{"id":1123870,"name":"Patrick Wadge","county":"Tayside","age":20,"daysSinceLastWin":76,"licenseType":"Conditional","jockeyImage":null},{"id":853726,"name":"Mr James Waggott","county":"County Durham","age":31,"daysSinceLastWin":null,"licenseType":"Cat A Amateur (Dual)","jockeyImage":null},{"id":564433,"name":"Mr Simon Walker","county":"Hampshire","age":49,"daysSinceLastWin":40,"licenseType":"Cat B Amateur","jockeyImage":null},{"id":1149820,"name":"Mr Gregor Walkingshaw","county":"Kinross-shire","age":18,"daysSinceLastWin":null,"licenseType":"Cat A Amateur (Jump)","jockeyImage":null},{"id":1059179,"name":"Eoin Walsh","county":"Suffolk","age":27,"daysSinceLastWin":406,"licenseType":"Flat","jockeyImage":null},{"id":938224,"name":"Chris Ward","county":"Warwickshire","age":32,"daysSinceLastWin":102,"licenseType":"Jump","jockeyImage":null},{"id":1085379,"name":"Jason Watson","county":"Sussex","age":22,"daysSinceLastWin":26,"licenseType":"Flat","jockeyImage":"https:\/\/media.britishhorseracing.com\/images\/jockeys\/photos\/1085379.jpg"},{"id":1103446,"name":"Shannon Watts","county":"Lanarkshire","age":24,"daysSinceLastWin":70,"licenseType":"Apprentice","jockeyImage":null},{"id":957370,"name":"Amie Waugh","county":"Northumberland","age":32,"daysSinceLastWin":22,"licenseType":"Flat \/ Jump","jockeyImage":null},{"id":1135527,"name":"Mr Aidan Weaver","county":"","age":23,"daysSinceLastWin":null,"licenseType":"Cat A Amateur (Dual)","jockeyImage":null},{"id":1135750,"name":"Miss Katie Webb","county":"Cambridgeshire","age":23,"daysSinceLastWin":698,"licenseType":"Cat A Amateur (Flat)","jockeyImage":null},{"id":1119748,"name":"Mr Vincent Webster","county":"Somerset","age":29,"daysSinceLastWin":120,"licenseType":"Cat B Amateur","jockeyImage":null},{"id":946853,"name":"Adam Wedge","county":"Mid Glamorgan","age":33,"daysSinceLastWin":74,"licenseType":"Jump","jockeyImage":"https:\/\/media.britishhorseracing.com\/images\/jockeys\/photos\/946853.jpg"},{"id":1100980,"name":"Zak Wheatley","county":"North Yorkshire","age":23,"daysSinceLastWin":0,"licenseType":"Apprentice","jockeyImage":null},{"id":999910,"name":"Trevor Whelan","county":"Wiltshire","age":33,"daysSinceLastWin":21,"licenseType":"Flat","jockeyImage":null},{"id":1089105,"name":"Elisha Whittington","county":"Worcestershire","age":24,"daysSinceLastWin":373,"licenseType":"Apprentice","jockeyImage":null},{"id":1153938,"name":"Jack Wildman","county":"Wiltshire","age":21,"daysSinceLastWin":159,"licenseType":"Conditional","jockeyImage":null},{"id":1160748,"name":"Brandon Wilkie","county":"North Yorkshire","age":19,"daysSinceLastWin":24,"licenseType":"Apprentice","jockeyImage":null},{"id":621624,"name":"Miss Sarah Williams","county":"Suffolk","age":53,"daysSinceLastWin":null,"licenseType":"Cat A Amateur (Flat)","jockeyImage":null},{"id":1083320,"name":"Lorcan Williams","county":"Somerset","age":23,"daysSinceLastWin":19,"licenseType":"Jump","jockeyImage":null},{"id":1170902,"name":"Miss Emma Williams","county":"Gloucestershire","age":19,"daysSinceLastWin":null,"licenseType":"Cat A Amateur (Dual)","jockeyImage":null},{"id":1042395,"name":"Chester Williams","county":"Devon","age":25,"daysSinceLastWin":194,"licenseType":"Conditional","jockeyImage":null},{"id":1081330,"name":"Jordan Williams","county":"Mid Glamorgan","age":24,"daysSinceLastWin":53,"licenseType":"Apprentice","jockeyImage":null},{"id":1074356,"name":"Joe Williamson","county":"North Yorkshire","age":25,"daysSinceLastWin":144,"licenseType":"Apprentice \/ Conditional","jockeyImage":null},{"id":1102260,"name":"Thomas Willmott","county":"West Yorkshire","age":22,"daysSinceLastWin":117,"licenseType":"Conditional","jockeyImage":null},{"id":1138342,"name":"Mr Matthew Wilson","county":"Surrey","age":21,"daysSinceLastWin":null,"licenseType":"Cat A Amateur (Dual)","jockeyImage":null},{"id":1137645,"name":"Poppy Wilson","county":"Dumfriesshire","age":20,"daysSinceLastWin":null,"licenseType":"Apprentice","jockeyImage":null},{"id":1123954,"name":"Curtis Wilson-Ruddock","county":"North Yorkshire","age":21,"daysSinceLastWin":null,"licenseType":"Apprentice","jockeyImage":null},{"id":1056752,"name":"Miss Jodie Wingrove","county":"Shropshire","age":22,"daysSinceLastWin":null,"licenseType":"Cat A Amateur (Dual)","jockeyImage":null},{"id":1056754,"name":"Miss Megan Wingrove","county":"Shropshire","age":24,"daysSinceLastWin":74,"licenseType":"Cat A Amateur (Flat)","jockeyImage":null},{"id":1134938,"name":"Mark Winn","county":"Berkshire","age":19,"daysSinceLastWin":1,"licenseType":"Apprentice","jockeyImage":null},{"id":714735,"name":"Robert Winston","county":"Suffolk","age":42,"daysSinceLastWin":210,"licenseType":"Flat","jockeyImage":null},{"id":1067481,"name":"George Wood","county":"Suffolk","age":24,"daysSinceLastWin":28,"licenseType":"Flat","jockeyImage":null},{"id":1024252,"name":"Kielan Woods","county":"Gloucestershire","age":29,"daysSinceLastWin":1,"licenseType":"Jump","jockeyImage":"https:\/\/media.britishhorseracing.com\/images\/jockeys\/photos\/1024252.jpg"},{"id":1033339,"name":"Tabitha Worsley","county":"Herefordshire","age":27,"daysSinceLastWin":70,"licenseType":"Jump","jockeyImage":null},{"id":1133099,"name":"Miss Maddison Wright","county":"Sussex","age":19,"daysSinceLastWin":null,"licenseType":"Cat A Amateur (Flat)","jockeyImage":null},{"id":1061173,"name":"Mr Archie Wright","county":"Cambridgeshire","age":28,"daysSinceLastWin":2396,"licenseType":"Cat B Amateur","jockeyImage":null},{"id":1173942,"name":"Liam Wright","county":"Suffolk","age":20,"daysSinceLastWin":34,"licenseType":"Apprentice","jockeyImage":null},{"id":1068024,"name":"Mr Joe Wright","county":"North Yorkshire","age":24,"daysSinceLastWin":136,"licenseType":"Cat B Amateur","jockeyImage":null},{"id":1146521,"name":"Toby Wynne","county":"Cheshire","age":19,"daysSinceLastWin":4,"licenseType":"Conditional","jockeyImage":null},{"id":1084457,"name":"Mr Fletcher Yarham","county":"Suffolk","age":24,"daysSinceLastWin":1933,"licenseType":"Cat A Amateur (Flat)","jockeyImage":null},{"id":558003,"name":"Mr Phillip York","county":"Surrey","age":56,"daysSinceLastWin":424,"licenseType":"Cat B Amateur","jockeyImage":null}]}