{"total":565,"per_page":250,"current_page":3,"last_page":3,"from":501,"to":565,"data":[{"trainerId":561414,"trainerStyle":"Nigel Tinkler","fullName":"Nigel Delfosse Tinkler","licenceType":"Combined","numberOfDaysSinceLastWin":3,"county":"North Yorkshire"},{"trainerId":544095,"trainerStyle":"Colin Tizzard","fullName":"Colin Leslie Tizzard","licenceType":"Combined","numberOfDaysSinceLastWin":160,"county":"Dorset"},{"trainerId":700293,"trainerStyle":"Joe Tizzard","fullName":"Joe Colin Leslie Tizzard","licenceType":"Combined","numberOfDaysSinceLastWin":4,"county":"Dorset"},{"trainerId":556502,"trainerStyle":"Sir Mark Todd","fullName":"Mark James Todd","licenceType":"Combined","numberOfDaysSinceLastWin":10,"county":"Wiltshire"},{"trainerId":701892,"trainerStyle":"Martin Todhunter","fullName":"Duncan Martin Todhunter","licenceType":"Combined","numberOfDaysSinceLastWin":21,"county":"Cumbria"},{"trainerId":619633,"trainerStyle":"Marcus Tregoning","fullName":"Marcus Philip Norris Tregoning","licenceType":"Combined","numberOfDaysSinceLastWin":8,"county":"Hampshire"},{"trainerId":507056,"trainerStyle":"Grant Tuer","fullName":"Grant Fraser Tuer","licenceType":"Flat","numberOfDaysSinceLastWin":3,"county":"North Yorkshire"},{"trainerId":547399,"trainerStyle":"Joseph Tuite","fullName":"Joseph Mary Tuite","licenceType":"Combined","numberOfDaysSinceLastWin":107,"county":"Berkshire"},{"trainerId":552788,"trainerStyle":"Bill Turner","fullName":"William George Michael Turner","licenceType":"Combined","numberOfDaysSinceLastWin":102,"county":"Dorset"},{"trainerId":994598,"trainerStyle":"Gemma Tutty","fullName":"Gemma Tutty","licenceType":"Flat","numberOfDaysSinceLastWin":35,"county":"North Yorkshire"},{"trainerId":522329,"trainerStyle":"Nigel Twiston-Davies","fullName":"Nigel Anthony Twiston-Davies","licenceType":"Combined","numberOfDaysSinceLastWin":7,"county":"Gloucestershire"},{"trainerId":501252,"trainerStyle":"Mark Usher","fullName":"Mark Donald Ian Usher","licenceType":"Combined","numberOfDaysSinceLastWin":15,"county":"Berkshire"},{"trainerId":726948,"trainerStyle":"Roger Varian","fullName":"Roger Patrick Varian","licenceType":"Combined","numberOfDaysSinceLastWin":1,"county":"Suffolk"},{"trainerId":724114,"trainerStyle":"Tim Vaughan","fullName":"Timothy Edward Vaughan","licenceType":"Combined","numberOfDaysSinceLastWin":114,"county":"South Glamorgan"},{"trainerId":511446,"trainerStyle":"Lucy Wadham","fullName":"Lucy Ann Mhari Wadham","licenceType":"Combined","numberOfDaysSinceLastWin":18,"county":"Suffolk"},{"trainerId":541225,"trainerStyle":"Tracy Waggott","fullName":"Tracy Waggott","licenceType":"Combined","numberOfDaysSinceLastWin":42,"county":"County Durham"},{"trainerId":534261,"trainerStyle":"John Wainwright","fullName":"John Stanley Wainwright","licenceType":"Combined","numberOfDaysSinceLastWin":28,"county":"North Yorkshire"},{"trainerId":556520,"trainerStyle":"Robert Waley-Cohen","fullName":"Robert Bernard Waley-Cohen","licenceType":"Permit","numberOfDaysSinceLastWin":218,"county":"Oxfordshire"},{"trainerId":765784,"trainerStyle":"Mark Walford","fullName":"Mark Thomas Walford","licenceType":"Combined","numberOfDaysSinceLastWin":7,"county":"North Yorkshire"},{"trainerId":744578,"trainerStyle":"Robert Walford","fullName":"Robert Andrew Walford","licenceType":"Combined","numberOfDaysSinceLastWin":1,"county":"Dorset"},{"trainerId":864687,"trainerStyle":"Ed Walker","fullName":"Edward Charles Deverill Walker","licenceType":"Combined","numberOfDaysSinceLastWin":3,"county":"Berkshire"},{"trainerId":507857,"trainerStyle":"Chris Wall","fullName":"Christian Frederick Wall","licenceType":"Flat","numberOfDaysSinceLastWin":1,"county":"Suffolk"},{"trainerId":561904,"trainerStyle":"Trevor Wall","fullName":"Trevor Richard Wall","licenceType":"Combined","numberOfDaysSinceLastWin":2217,"county":"Shropshire"},{"trainerId":795827,"trainerStyle":"Charlie Wallis","fullName":"Charles Benjamin Wallis","licenceType":"Combined","numberOfDaysSinceLastWin":224,"county":"Essex"},{"trainerId":737412,"trainerStyle":"Jane Walton","fullName":"Jane Margaret Walton","licenceType":"Jump","numberOfDaysSinceLastWin":499,"county":"Tyne and Wear"},{"trainerId":531167,"trainerStyle":"James Walton","fullName":"James Brewis Walton","licenceType":"Permit","numberOfDaysSinceLastWin":112,"county":"Northumberland"},{"trainerId":969736,"trainerStyle":"Tom Ward","fullName":"Thomas Dudley Ward","licenceType":"Combined","numberOfDaysSinceLastWin":1,"county":"Berkshire"},{"trainerId":1004853,"trainerStyle":"Archie Watson","fullName":"Archie Maximilian Bannatyne Watson","licenceType":"Combined","numberOfDaysSinceLastWin":6,"county":"Berkshire"},{"trainerId":517238,"trainerStyle":"Fred Watson","fullName":"Frederick Watson","licenceType":"Combined","numberOfDaysSinceLastWin":810,"county":"Cleveland"},{"trainerId":528152,"trainerStyle":"Simon Waugh","fullName":"Simon George Waugh","licenceType":"Combined","numberOfDaysSinceLastWin":116,"county":"Northumberland"},{"trainerId":601359,"trainerStyle":"Mark Weatherer","fullName":"Mark Weatherer","licenceType":"Combined","numberOfDaysSinceLastWin":70,"county":"Yorkshire"},{"trainerId":516328,"trainerStyle":"Paul Webber","fullName":"Paul Richard Webber","licenceType":"Combined","numberOfDaysSinceLastWin":218,"county":"Oxfordshire"},{"trainerId":713533,"trainerStyle":"Simon West","fullName":"Simon Gary West","licenceType":"Combined","numberOfDaysSinceLastWin":202,"county":"North Yorkshire"},{"trainerId":532550,"trainerStyle":"Sheena West","fullName":"Sheena West","licenceType":"Combined","numberOfDaysSinceLastWin":6,"county":"East Sussex"},{"trainerId":896959,"trainerStyle":"Adam West","fullName":"Adam West","licenceType":"Combined","numberOfDaysSinceLastWin":8,"county":"Surrey"},{"trainerId":895601,"trainerStyle":"David Weston","fullName":"David John Weston","licenceType":"Combined","numberOfDaysSinceLastWin":4,"county":"Wiltshire"},{"trainerId":855794,"trainerStyle":"Tom Weston","fullName":"Thomas Henry Weston","licenceType":"Jump","numberOfDaysSinceLastWin":156,"county":"Worcestershire"},{"trainerId":798621,"trainerStyle":"Ewan Whillans","fullName":"Ewan Alistair Whillans","licenceType":"Combined","numberOfDaysSinceLastWin":3,"county":"Roxburghshire"},{"trainerId":510935,"trainerStyle":"Donald Whillans","fullName":"Donald Wilson Whillans","licenceType":"Combined","numberOfDaysSinceLastWin":164,"county":"Roxburghshire"},{"trainerId":520857,"trainerStyle":"Simon Whitaker","fullName":"Simon Richard Whitaker","licenceType":"Combined","numberOfDaysSinceLastWin":9,"county":"West Yorkshire"},{"trainerId":907865,"trainerStyle":"Harry Whittington","fullName":"Christopher Henry Oliver (Rides as Harry) Whittington","licenceType":"Combined","numberOfDaysSinceLastWin":38,"county":"Oxfordshire"},{"trainerId":545327,"trainerStyle":"Michael Wigham","fullName":"Michael Wigham","licenceType":"Combined","numberOfDaysSinceLastWin":163,"county":"Suffolk"},{"trainerId":555679,"trainerStyle":"Martin Wilesmith","fullName":"Martin Shaw Wilesmith","licenceType":"Permit","numberOfDaysSinceLastWin":null,"county":"Gloucestershire"},{"trainerId":784135,"trainerStyle":"Olly Williams","fullName":"Oliver Rhys Williams","licenceType":"Combined","numberOfDaysSinceLastWin":66,"county":"Lincolnshire"},{"trainerId":532499,"trainerStyle":"Mrs Jane Williams","fullName":"Jane Rosemary Williams","licenceType":"Combined","numberOfDaysSinceLastWin":194,"county":"Devon"},{"trainerId":529702,"trainerStyle":"Stuart Williams","fullName":"Stuart Charles Williams","licenceType":"Flat","numberOfDaysSinceLastWin":9,"county":"Suffolk"},{"trainerId":522849,"trainerStyle":"Evan Williams","fullName":"Richard Evan Rhys Williams","licenceType":"Combined","numberOfDaysSinceLastWin":38,"county":"Vale of Glamorgan"},{"trainerId":727171,"trainerStyle":"Noel Williams","fullName":"Noel Williams","licenceType":"Combined","numberOfDaysSinceLastWin":135,"county":"Oxfordshire"},{"trainerId":537257,"trainerStyle":"Ian Williams","fullName":"Ian Paul Williams","licenceType":"Combined","numberOfDaysSinceLastWin":4,"county":null},{"trainerId":753895,"trainerStyle":"Christian Williams","fullName":"Christian Robert Powell Williams","licenceType":"Combined","numberOfDaysSinceLastWin":37,"county":"Mid Glamorgan"},{"trainerId":528875,"trainerStyle":"Venetia Williams","fullName":"Venetia Mary Williams","licenceType":"Combined","numberOfDaysSinceLastWin":140,"county":"Herefordshire"},{"trainerId":501274,"trainerStyle":"Lisa Williamson","fullName":"Lisa Victoria Williamson","licenceType":"Combined","numberOfDaysSinceLastWin":2,"county":"Clwyd"},{"trainerId":611694,"trainerStyle":"Andrew Wilson","fullName":"Andrew Christopher Wilson","licenceType":"Jump","numberOfDaysSinceLastWin":650,"county":"Cumbria"},{"trainerId":558045,"trainerStyle":"Ken Wingrove","fullName":"Kenneth George Wingrove","licenceType":"Combined","numberOfDaysSinceLastWin":6020,"county":"Shropshire"},{"trainerId":539600,"trainerStyle":"Peter Winks","fullName":"Peter Winks","licenceType":"Combined","numberOfDaysSinceLastWin":190,"county":"South Yorkshire"},{"trainerId":505155,"trainerStyle":"Adrian Wintle","fullName":"Adrian Allan Wintle","licenceType":"Combined","numberOfDaysSinceLastWin":7,"county":"Gloucestershire"},{"trainerId":726789,"trainerStyle":"Rebecca Woodman","fullName":"Rebecca Elizabeth Woodman","licenceType":"Combined","numberOfDaysSinceLastWin":37,"county":"West Sussex"},{"trainerId":519153,"trainerStyle":"Steve Woodman","fullName":"Stephen Woodman","licenceType":"Combined","numberOfDaysSinceLastWin":1432,"county":"West Sussex"},{"trainerId":804516,"trainerStyle":"Cynthia Woods","fullName":"Cynthia Woods","licenceType":"Jump","numberOfDaysSinceLastWin":211,"county":"East Sussex"},{"trainerId":555696,"trainerStyle":"S. P. C. Woods","fullName":"Sean Peter Charles Woods","licenceType":"Combined","numberOfDaysSinceLastWin":11,"county":"Suffolk"},{"trainerId":847860,"trainerStyle":"Kayley Woollacott","fullName":"Kayley Woollacott","licenceType":"Jump","numberOfDaysSinceLastWin":108,"county":"Somerset"},{"trainerId":558003,"trainerStyle":"Phil York","fullName":"Phillip York","licenceType":"Permit","numberOfDaysSinceLastWin":424,"county":"Surrey"},{"trainerId":604529,"trainerStyle":"William Young Jnr","fullName":"William Young","licenceType":"Permit","numberOfDaysSinceLastWin":221,"county":"Lanarkshire"},{"trainerId":1087660,"trainerStyle":"Max Young","fullName":"Maxwell James Young","licenceType":"Combined","numberOfDaysSinceLastWin":279,"county":"Worcestershire"},{"trainerId":545990,"trainerStyle":"Laura Young","fullName":"Laura Jayne Young","licenceType":"Combined","numberOfDaysSinceLastWin":187,"county":"Somerset"}]}